%!PS-Adobe-3.0 EPSF-3.0
%%Creator: (MATLAB, The Mathworks, Inc. Version 9.4.0.813654 \(R2018a\). Operating System: Linux)
%%Title: /home/jcano/cours/multivar/projet/rapport/fig/lambdas_observer.eps
%%CreationDate: 2019-12-10T19:09:00
%%Pages: (atend)
%%BoundingBox: 0 0 740 338
%%LanguageLevel: 3
%%EndComments
%%BeginProlog
%%BeginResource: procset (Apache XML Graphics Std ProcSet) 1.2 0
%%Version: 1.2 0
%%Copyright: (Copyright 2001-2003,2010 The Apache Software Foundation. License terms: http://www.apache.org/licenses/LICENSE-2.0)
/bd{bind def}bind def
/ld{load def}bd
/GR/grestore ld
/GS/gsave ld
/RM/rmoveto ld
/C/curveto ld
/t/show ld
/L/lineto ld
/ML/setmiterlimit ld
/CT/concat ld
/f/fill ld
/N/newpath ld
/S/stroke ld
/CC/setcmykcolor ld
/A/ashow ld
/cp/closepath ld
/RC/setrgbcolor ld
/LJ/setlinejoin ld
/GC/setgray ld
/LW/setlinewidth ld
/M/moveto ld
/re {4 2 roll M
1 index 0 rlineto
0 exch rlineto
neg 0 rlineto
cp } bd
/_ctm matrix def
/_tm matrix def
/BT { _ctm currentmatrix pop matrix _tm copy pop 0 0 moveto } bd
/ET { _ctm setmatrix } bd
/iTm { _ctm setmatrix _tm concat } bd
/Tm { _tm astore pop iTm 0 0 moveto } bd
/ux 0.0 def
/uy 0.0 def
/F {
  /Tp exch def
  /Tf exch def
  Tf findfont Tp scalefont setfont
  /cf Tf def  /cs Tp def
} bd
/ULS {currentpoint /uy exch def /ux exch def} bd
/ULE {
  /Tcx currentpoint pop def
  gsave
  newpath
  cf findfont cs scalefont dup
  /FontMatrix get 0 get /Ts exch def /FontInfo get dup
  /UnderlinePosition get Ts mul /To exch def
  /UnderlineThickness get Ts mul /Tt exch def
  ux uy To add moveto  Tcx uy To add lineto
  Tt setlinewidth stroke
  grestore
} bd
/OLE {
  /Tcx currentpoint pop def
  gsave
  newpath
  cf findfont cs scalefont dup
  /FontMatrix get 0 get /Ts exch def /FontInfo get dup
  /UnderlinePosition get Ts mul /To exch def
  /UnderlineThickness get Ts mul /Tt exch def
  ux uy To add cs add moveto Tcx uy To add cs add lineto
  Tt setlinewidth stroke
  grestore
} bd
/SOE {
  /Tcx currentpoint pop def
  gsave
  newpath
  cf findfont cs scalefont dup
  /FontMatrix get 0 get /Ts exch def /FontInfo get dup
  /UnderlinePosition get Ts mul /To exch def
  /UnderlineThickness get Ts mul /Tt exch def
  ux uy To add cs 10 mul 26 idiv add moveto Tcx uy To add cs 10 mul 26 idiv add lineto
  Tt setlinewidth stroke
  grestore
} bd
/QT {
/Y22 exch store
/X22 exch store
/Y21 exch store
/X21 exch store
currentpoint
/Y21 load 2 mul add 3 div exch
/X21 load 2 mul add 3 div exch
/X21 load 2 mul /X22 load add 3 div
/Y21 load 2 mul /Y22 load add 3 div
/X22 load /Y22 load curveto
} bd
/SSPD {
dup length /d exch dict def
{
/v exch def
/k exch def
currentpagedevice k known {
/cpdv currentpagedevice k get def
v cpdv ne {
/upd false def
/nullv v type /nulltype eq def
/nullcpdv cpdv type /nulltype eq def
nullv nullcpdv or
{
/upd true def
} {
/sametype v type cpdv type eq def
sametype {
v type /arraytype eq {
/vlen v length def
/cpdvlen cpdv length def
vlen cpdvlen eq {
0 1 vlen 1 sub {
/i exch def
/obj v i get def
/cpdobj cpdv i get def
obj cpdobj ne {
/upd true def
exit
} if
} for
} {
/upd true def
} ifelse
} {
v type /dicttype eq {
v {
/dv exch def
/dk exch def
/cpddv cpdv dk get def
dv cpddv ne {
/upd true def
exit
} if
} forall
} {
/upd true def
} ifelse
} ifelse
} if
} ifelse
upd true eq {
d k v put
} if
} if
} if
} forall
d length 0 gt {
d setpagedevice
} if
} bd
/RE { % /NewFontName [NewEncodingArray] /FontName RE -
  findfont dup length dict begin
  {
    1 index /FID ne
    {def} {pop pop} ifelse
  } forall
  /Encoding exch def
  /FontName 1 index def
  currentdict definefont pop
  end
} bind def
%%EndResource
%%BeginResource: procset (Apache XML Graphics EPS ProcSet) 1.0 0
%%Version: 1.0 0
%%Copyright: (Copyright 2002-2003 The Apache Software Foundation. License terms: http://www.apache.org/licenses/LICENSE-2.0)
/BeginEPSF { %def
/b4_Inc_state save def         % Save state for cleanup
/dict_count countdictstack def % Count objects on dict stack
/op_count count 1 sub def      % Count objects on operand stack
userdict begin                 % Push userdict on dict stack
/showpage { } def              % Redefine showpage, { } = null proc
0 setgray 0 setlinecap         % Prepare graphics state
1 setlinewidth 0 setlinejoin
10 setmiterlimit [ ] 0 setdash newpath
/languagelevel where           % If level not equal to 1 then
{pop languagelevel             % set strokeadjust and
1 ne                           % overprint to their defaults.
{false setstrokeadjust false setoverprint
} if
} if
} bd
/EndEPSF { %def
count op_count sub {pop} repeat            % Clean up stacks
countdictstack dict_count sub {end} repeat
b4_Inc_state restore
} bd
%%EndResource
%FOPBeginFontDict
%%IncludeResource: font Courier-Oblique
%%IncludeResource: font Courier-BoldOblique
%%IncludeResource: font Courier-Bold
%%IncludeResource: font ZapfDingbats
%%IncludeResource: font Symbol
%%IncludeResource: font Helvetica
%%IncludeResource: font Helvetica-Oblique
%%IncludeResource: font Helvetica-Bold
%%IncludeResource: font Helvetica-BoldOblique
%%IncludeResource: font Times-Roman
%%IncludeResource: font Times-Italic
%%IncludeResource: font Times-Bold
%%IncludeResource: font Times-BoldItalic
%%IncludeResource: font Courier
%FOPEndFontDict
%%BeginResource: encoding WinAnsiEncoding
/WinAnsiEncoding [
/.notdef /.notdef /.notdef /.notdef /.notdef
/.notdef /.notdef /.notdef /.notdef /.notdef
/.notdef /.notdef /.notdef /.notdef /.notdef
/.notdef /.notdef /.notdef /.notdef /.notdef
/.notdef /.notdef /.notdef /.notdef /.notdef
/.notdef /.notdef /.notdef /.notdef /.notdef
/.notdef /.notdef /space /exclam /quotedbl
/numbersign /dollar /percent /ampersand /quotesingle
/parenleft /parenright /asterisk /plus /comma
/hyphen /period /slash /zero /one
/two /three /four /five /six
/seven /eight /nine /colon /semicolon
/less /equal /greater /question /at
/A /B /C /D /E
/F /G /H /I /J
/K /L /M /N /O
/P /Q /R /S /T
/U /V /W /X /Y
/Z /bracketleft /backslash /bracketright /asciicircum
/underscore /quoteleft /a /b /c
/d /e /f /g /h
/i /j /k /l /m
/n /o /p /q /r
/s /t /u /v /w
/x /y /z /braceleft /bar
/braceright /asciitilde /bullet /Euro /bullet
/quotesinglbase /florin /quotedblbase /ellipsis /dagger
/daggerdbl /circumflex /perthousand /Scaron /guilsinglleft
/OE /bullet /Zcaron /bullet /bullet
/quoteleft /quoteright /quotedblleft /quotedblright /bullet
/endash /emdash /asciitilde /trademark /scaron
/guilsinglright /oe /bullet /zcaron /Ydieresis
/space /exclamdown /cent /sterling /currency
/yen /brokenbar /section /dieresis /copyright
/ordfeminine /guillemotleft /logicalnot /sfthyphen /registered
/macron /degree /plusminus /twosuperior /threesuperior
/acute /mu /paragraph /middot /cedilla
/onesuperior /ordmasculine /guillemotright /onequarter /onehalf
/threequarters /questiondown /Agrave /Aacute /Acircumflex
/Atilde /Adieresis /Aring /AE /Ccedilla
/Egrave /Eacute /Ecircumflex /Edieresis /Igrave
/Iacute /Icircumflex /Idieresis /Eth /Ntilde
/Ograve /Oacute /Ocircumflex /Otilde /Odieresis
/multiply /Oslash /Ugrave /Uacute /Ucircumflex
/Udieresis /Yacute /Thorn /germandbls /agrave
/aacute /acircumflex /atilde /adieresis /aring
/ae /ccedilla /egrave /eacute /ecircumflex
/edieresis /igrave /iacute /icircumflex /idieresis
/eth /ntilde /ograve /oacute /ocircumflex
/otilde /odieresis /divide /oslash /ugrave
/uacute /ucircumflex /udieresis /yacute /thorn
/ydieresis
] def
%%EndResource
%FOPBeginFontReencode
/Courier-Oblique findfont
dup length dict begin
  {1 index /FID ne {def} {pop pop} ifelse} forall
  /Encoding WinAnsiEncoding def
  currentdict
end
/Courier-Oblique exch definefont pop
/Courier-BoldOblique findfont
dup length dict begin
  {1 index /FID ne {def} {pop pop} ifelse} forall
  /Encoding WinAnsiEncoding def
  currentdict
end
/Courier-BoldOblique exch definefont pop
/Courier-Bold findfont
dup length dict begin
  {1 index /FID ne {def} {pop pop} ifelse} forall
  /Encoding WinAnsiEncoding def
  currentdict
end
/Courier-Bold exch definefont pop
/Helvetica findfont
dup length dict begin
  {1 index /FID ne {def} {pop pop} ifelse} forall
  /Encoding WinAnsiEncoding def
  currentdict
end
/Helvetica exch definefont pop
/Helvetica-Oblique findfont
dup length dict begin
  {1 index /FID ne {def} {pop pop} ifelse} forall
  /Encoding WinAnsiEncoding def
  currentdict
end
/Helvetica-Oblique exch definefont pop
/Helvetica-Bold findfont
dup length dict begin
  {1 index /FID ne {def} {pop pop} ifelse} forall
  /Encoding WinAnsiEncoding def
  currentdict
end
/Helvetica-Bold exch definefont pop
/Helvetica-BoldOblique findfont
dup length dict begin
  {1 index /FID ne {def} {pop pop} ifelse} forall
  /Encoding WinAnsiEncoding def
  currentdict
end
/Helvetica-BoldOblique exch definefont pop
/Times-Roman findfont
dup length dict begin
  {1 index /FID ne {def} {pop pop} ifelse} forall
  /Encoding WinAnsiEncoding def
  currentdict
end
/Times-Roman exch definefont pop
/Times-Italic findfont
dup length dict begin
  {1 index /FID ne {def} {pop pop} ifelse} forall
  /Encoding WinAnsiEncoding def
  currentdict
end
/Times-Italic exch definefont pop
/Times-Bold findfont
dup length dict begin
  {1 index /FID ne {def} {pop pop} ifelse} forall
  /Encoding WinAnsiEncoding def
  currentdict
end
/Times-Bold exch definefont pop
/Times-BoldItalic findfont
dup length dict begin
  {1 index /FID ne {def} {pop pop} ifelse} forall
  /Encoding WinAnsiEncoding def
  currentdict
end
/Times-BoldItalic exch definefont pop
/Courier findfont
dup length dict begin
  {1 index /FID ne {def} {pop pop} ifelse} forall
  /Encoding WinAnsiEncoding def
  currentdict
end
/Courier exch definefont pop
%FOPEndFontReencode
%%EndProlog
%%Page: 1 1
%%PageBoundingBox: 0 0 740 338
%%BeginPageSetup
[1 0 0 -1 0 338] CT
%%EndPageSetup
GS
[0.75 0 0 0.75 0 0.5] CT
N
0 0 M
986 0 L
986 450 L
0 450 L
0 0 L
cp
clip
1 GC
N
0 0 986 450 re
f
GR
GS
[0.75 0 0 0.75 0 0.5] CT
1 GC
N
0 0 986 450 re
f
GR
GS
[0.75 0 0 0.75 0 0.5] CT
1 GC
N
128 180 M
892 180 L
892 34 L
128 34 L
cp
f
GR
GS
[0.75 0 0 0.75 0 0.5] CT
0.873 GC
1 LJ
0.667 LW
N
128 180 M
128 34 L
S
GR
GS
[0.75 0 0 0.75 0 0.5] CT
0.873 GC
1 LJ
0.667 LW
N
204.4 180 M
204.4 34 L
S
GR
GS
[0.75 0 0 0.75 0 0.5] CT
0.873 GC
1 LJ
0.667 LW
N
280.8 180 M
280.8 34 L
S
GR
GS
[0.75 0 0 0.75 0 0.5] CT
0.873 GC
1 LJ
0.667 LW
N
357.2 180 M
357.2 34 L
S
GR
GS
[0.75 0 0 0.75 0 0.5] CT
0.873 GC
1 LJ
0.667 LW
N
433.6 180 M
433.6 34 L
S
GR
GS
[0.75 0 0 0.75 0 0.5] CT
0.873 GC
1 LJ
0.667 LW
N
510 180 M
510 34 L
S
GR
GS
[0.75 0 0 0.75 0 0.5] CT
0.873 GC
1 LJ
0.667 LW
N
586.4 180 M
586.4 34 L
S
GR
GS
[0.75 0 0 0.75 0 0.5] CT
0.873 GC
1 LJ
0.667 LW
N
662.8 180 M
662.8 34 L
S
GR
GS
[0.75 0 0 0.75 0 0.5] CT
0.873 GC
1 LJ
0.667 LW
N
739.2 180 M
739.2 34 L
S
GR
GS
[0.75 0 0 0.75 0 0.5] CT
0.873 GC
1 LJ
0.667 LW
N
815.6 180 M
815.6 34 L
S
GR
GS
[0.75 0 0 0.75 0 0.5] CT
0.873 GC
1 LJ
0.667 LW
N
892 180 M
892 34 L
S
GR
GS
[0.75 0 0 0.75 0 0.5] CT
0.873 GC
1 LJ
0.667 LW
N
892 180 M
128 180 L
S
GR
GS
[0.75 0 0 0.75 0 0.5] CT
0.873 GC
1 LJ
0.667 LW
N
892 131.333 M
128 131.333 L
S
GR
GS
[0.75 0 0 0.75 0 0.5] CT
0.873 GC
1 LJ
0.667 LW
N
892 82.667 M
128 82.667 L
S
GR
GS
[0.75 0 0 0.75 0 0.5] CT
0.873 GC
1 LJ
0.667 LW
N
892 34 M
128 34 L
S
GR
GS
[0.75 0 0 0.75 0 0.5] CT
0.149 GC
2 setlinecap
1 LJ
0.667 LW
N
128 180 M
892 180 L
S
GR
GS
[0.75 0 0 0.75 0 0.5] CT
0.149 GC
2 setlinecap
1 LJ
0.667 LW
N
128 34 M
892 34 L
S
GR
GS
[0.75 0 0 0.75 0 0.5] CT
0.149 GC
2 setlinecap
1 LJ
0.667 LW
N
128 180 M
128 172.36 L
S
GR
GS
[0.75 0 0 0.75 0 0.5] CT
0.149 GC
2 setlinecap
1 LJ
0.667 LW
N
204.4 180 M
204.4 172.36 L
S
GR
GS
[0.75 0 0 0.75 0 0.5] CT
0.149 GC
2 setlinecap
1 LJ
0.667 LW
N
280.8 180 M
280.8 172.36 L
S
GR
GS
[0.75 0 0 0.75 0 0.5] CT
0.149 GC
2 setlinecap
1 LJ
0.667 LW
N
357.2 180 M
357.2 172.36 L
S
GR
GS
[0.75 0 0 0.75 0 0.5] CT
0.149 GC
2 setlinecap
1 LJ
0.667 LW
N
433.6 180 M
433.6 172.36 L
S
GR
GS
[0.75 0 0 0.75 0 0.5] CT
0.149 GC
2 setlinecap
1 LJ
0.667 LW
N
510 180 M
510 172.36 L
S
GR
GS
[0.75 0 0 0.75 0 0.5] CT
0.149 GC
2 setlinecap
1 LJ
0.667 LW
N
586.4 180 M
586.4 172.36 L
S
GR
GS
[0.75 0 0 0.75 0 0.5] CT
0.149 GC
2 setlinecap
1 LJ
0.667 LW
N
662.8 180 M
662.8 172.36 L
S
GR
GS
[0.75 0 0 0.75 0 0.5] CT
0.149 GC
2 setlinecap
1 LJ
0.667 LW
N
739.2 180 M
739.2 172.36 L
S
GR
GS
[0.75 0 0 0.75 0 0.5] CT
0.149 GC
2 setlinecap
1 LJ
0.667 LW
N
815.6 180 M
815.6 172.36 L
S
GR
GS
[0.75 0 0 0.75 0 0.5] CT
0.149 GC
2 setlinecap
1 LJ
0.667 LW
N
892 180 M
892 172.36 L
S
GR
GS
[0.75 0 0 0.75 0 0.5] CT
0.149 GC
2 setlinecap
1 LJ
0.667 LW
N
128 34 M
128 41.64 L
S
GR
GS
[0.75 0 0 0.75 0 0.5] CT
0.149 GC
2 setlinecap
1 LJ
0.667 LW
N
204.4 34 M
204.4 41.64 L
S
GR
GS
[0.75 0 0 0.75 0 0.5] CT
0.149 GC
2 setlinecap
1 LJ
0.667 LW
N
280.8 34 M
280.8 41.64 L
S
GR
GS
[0.75 0 0 0.75 0 0.5] CT
0.149 GC
2 setlinecap
1 LJ
0.667 LW
N
357.2 34 M
357.2 41.64 L
S
GR
GS
[0.75 0 0 0.75 0 0.5] CT
0.149 GC
2 setlinecap
1 LJ
0.667 LW
N
433.6 34 M
433.6 41.64 L
S
GR
GS
[0.75 0 0 0.75 0 0.5] CT
0.149 GC
2 setlinecap
1 LJ
0.667 LW
N
510 34 M
510 41.64 L
S
GR
GS
[0.75 0 0 0.75 0 0.5] CT
0.149 GC
2 setlinecap
1 LJ
0.667 LW
N
586.4 34 M
586.4 41.64 L
S
GR
GS
[0.75 0 0 0.75 0 0.5] CT
0.149 GC
2 setlinecap
1 LJ
0.667 LW
N
662.8 34 M
662.8 41.64 L
S
GR
GS
[0.75 0 0 0.75 0 0.5] CT
0.149 GC
2 setlinecap
1 LJ
0.667 LW
N
739.2 34 M
739.2 41.64 L
S
GR
GS
[0.75 0 0 0.75 0 0.5] CT
0.149 GC
2 setlinecap
1 LJ
0.667 LW
N
815.6 34 M
815.6 41.64 L
S
GR
GS
[0.75 0 0 0.75 0 0.5] CT
0.149 GC
2 setlinecap
1 LJ
0.667 LW
N
892 34 M
892 41.64 L
S
GR
GS
[0.75 0 0 0.75 96 138.90001] CT
0.149 GC
/Helvetica 12.667 F
GS
[1 0 0 1 0 0] CT
-12.5 12 moveto 
1 -1 scale
(-0.5) t 
GR
GR
GS
[0.75 0 0 0.75 153.3 138.90001] CT
0.149 GC
/Helvetica 12.667 F
GS
[1 0 0 1 0 0] CT
-12.5 12 moveto 
1 -1 scale
(-0.4) t 
GR
GR
GS
[0.75 0 0 0.75 210.59999 138.90001] CT
0.149 GC
/Helvetica 12.667 F
GS
[1 0 0 1 0 0] CT
-12.5 12 moveto 
1 -1 scale
(-0.3) t 
GR
GR
GS
[0.75 0 0 0.75 267.90001 138.90001] CT
0.149 GC
/Helvetica 12.667 F
GS
[1 0 0 1 0 0] CT
-12.5 12 moveto 
1 -1 scale
(-0.2) t 
GR
GR
GS
[0.75 0 0 0.75 325.2 138.90001] CT
0.149 GC
/Helvetica 12.667 F
GS
[1 0 0 1 0 0] CT
-12.5 12 moveto 
1 -1 scale
(-0.1) t 
GR
GR
GS
[0.75 0 0 0.75 382.5 138.90001] CT
0.149 GC
/Helvetica 12.667 F
GS
[1 0 0 1 0 0] CT
-4.5 12 moveto 
1 -1 scale
(0) t 
GR
GR
GS
[0.75 0 0 0.75 439.80002 138.90001] CT
0.149 GC
/Helvetica 12.667 F
GS
[1 0 0 1 0 0] CT
-10.5 12 moveto 
1 -1 scale
(0.1) t 
GR
GR
GS
[0.75 0 0 0.75 497.09999 138.90001] CT
0.149 GC
/Helvetica 12.667 F
GS
[1 0 0 1 0 0] CT
-10.5 12 moveto 
1 -1 scale
(0.2) t 
GR
GR
GS
[0.75 0 0 0.75 554.40001 138.90001] CT
0.149 GC
/Helvetica 12.667 F
GS
[1 0 0 1 0 0] CT
-10.5 12 moveto 
1 -1 scale
(0.3) t 
GR
GR
GS
[0.75 0 0 0.75 611.69998 138.90001] CT
0.149 GC
/Helvetica 12.667 F
GS
[1 0 0 1 0 0] CT
-10.5 12 moveto 
1 -1 scale
(0.4) t 
GR
GR
GS
[0.75 0 0 0.75 669 138.90001] CT
0.149 GC
/Helvetica 12.667 F
GS
[1 0 0 1 0 0] CT
-10.5 12 moveto 
1 -1 scale
(0.5) t 
GR
GR
GS
[0.75 0 0 0.75 382.50027 150.89999] CT
0.149 GC
N
-1.751 14.951 M
-1.751 15.67 -1.494 16.271 QT
-1.236 16.873 -0.72 17.24 QT
-0.205 17.607 0.499 17.607 QT
0.967 17.607 1.506 17.396 QT
2.045 17.186 2.499 16.943 QT
2.952 16.701 2.967 16.701 QT
3.077 16.701 3.139 16.826 QT
3.202 16.951 3.202 17.076 QT
3.202 17.186 3.139 17.217 QT
1.827 18.154 0.483 18.154 QT
-0.626 18.154 -1.517 17.639 QT
-2.408 17.123 -2.9 16.201 QT
-3.392 15.279 -3.392 14.17 QT
-3.392 13.092 -2.947 12.115 QT
-2.501 11.139 -1.72 10.404 QT
-0.939 9.67 0.045 9.271 QT
1.03 8.873 2.092 8.873 QT
3.295 8.873 L
3.608 8.873 3.608 9.186 QT
3.608 9.357 3.491 9.482 QT
3.374 9.607 3.202 9.607 QT
2.061 9.607 L
1.217 9.607 0.538 9.975 QT
-0.142 10.342 -0.603 10.998 QT
-1.064 11.654 -1.33 12.482 QT
2.389 12.482 L
2.53 12.482 2.616 12.568 QT
2.702 12.654 2.702 12.795 QT
2.702 12.967 2.592 13.092 QT
2.483 13.217 2.311 13.217 QT
-1.517 13.217 L
-1.751 14.295 -1.751 14.951 QT
cp
f
GR
GS
[0.75 0 0 0.75 0 0.5] CT
0.149 GC
2 setlinecap
1 LJ
0.667 LW
N
128 180 M
128 34 L
S
GR
GS
[0.75 0 0 0.75 0 0.5] CT
0.149 GC
2 setlinecap
1 LJ
0.667 LW
N
892 180 M
892 34 L
S
GR
GS
[0.75 0 0 0.75 0 0.5] CT
0.149 GC
2 setlinecap
1 LJ
0.667 LW
N
128 180 M
135.64 180 L
S
GR
GS
[0.75 0 0 0.75 0 0.5] CT
0.149 GC
2 setlinecap
1 LJ
0.667 LW
N
128 131.333 M
135.64 131.333 L
S
GR
GS
[0.75 0 0 0.75 0 0.5] CT
0.149 GC
2 setlinecap
1 LJ
0.667 LW
N
128 82.667 M
135.64 82.667 L
S
GR
GS
[0.75 0 0 0.75 0 0.5] CT
0.149 GC
2 setlinecap
1 LJ
0.667 LW
N
128 34 M
135.64 34 L
S
GR
GS
[0.75 0 0 0.75 0 0.5] CT
0.149 GC
2 setlinecap
1 LJ
0.667 LW
N
892 180 M
884.36 180 L
S
GR
GS
[0.75 0 0 0.75 0 0.5] CT
0.149 GC
2 setlinecap
1 LJ
0.667 LW
N
892 131.333 M
884.36 131.333 L
S
GR
GS
[0.75 0 0 0.75 0 0.5] CT
0.149 GC
2 setlinecap
1 LJ
0.667 LW
N
892 82.667 M
884.36 82.667 L
S
GR
GS
[0.75 0 0 0.75 0 0.5] CT
0.149 GC
2 setlinecap
1 LJ
0.667 LW
N
892 34 M
884.36 34 L
S
GR
GS
[0.75 0 0 0.75 92.59999 135.5] CT
0.149 GC
/Helvetica 12.667 F
GS
[1 0 0 1 0 0] CT
-21 4.5 moveto 
1 -1 scale
(-15) t 
GR
GR
GS
[0.75 0 0 0.75 92.59999 99] CT
0.149 GC
/Helvetica 12.667 F
GS
[1 0 0 1 0 0] CT
-21 4.5 moveto 
1 -1 scale
(-10) t 
GR
GR
GS
[0.75 0 0 0.75 92.59999 62.5] CT
0.149 GC
/Helvetica 12.667 F
GS
[1 0 0 1 0 0] CT
-13 4.5 moveto 
1 -1 scale
(-5) t 
GR
GR
GS
[0.75 0 0 0.75 92.59999 26] CT
0.149 GC
/Helvetica 12.667 F
GS
[1 0 0 1 0 0] CT
-9 4.5 moveto 
1 -1 scale
(0) t 
GR
GR
GS
[0 -0.75 0.75 0 74.34999 80.74995] CT
0.149 GC
N
-43.327 -7.68 M
-43.327 -8.414 L
-41.17 -8.414 -41.17 -9.086 QT
-41.17 -20.618 L
-41.17 -21.289 -43.327 -21.289 QT
-43.327 -22.024 L
-36.733 -22.024 L
-35.561 -22.024 -34.264 -21.602 QT
-32.967 -21.18 -32.092 -20.305 QT
-31.217 -19.43 -31.217 -18.227 QT
-31.217 -17.336 -31.748 -16.649 QT
-32.28 -15.961 -33.108 -15.493 QT
-33.936 -15.024 -34.795 -14.821 QT
-33.842 -14.493 -33.139 -13.774 QT
-32.436 -13.055 -32.295 -12.133 QT
-31.998 -10.258 L
-31.78 -9.008 -31.561 -8.383 QT
-31.342 -7.758 -30.561 -7.758 QT
-29.905 -7.758 -29.584 -8.368 QT
-29.264 -8.977 -29.264 -9.696 QT
-29.264 -9.774 -29.194 -9.829 QT
-29.123 -9.883 -29.061 -9.883 QT
-28.858 -9.883 L
-28.655 -9.883 -28.655 -9.602 QT
-28.655 -9.039 -28.881 -8.485 QT
-29.108 -7.93 -29.538 -7.571 QT
-29.967 -7.211 -30.545 -7.211 QT
-32.061 -7.211 -33.155 -7.969 QT
-34.248 -8.727 -34.248 -10.18 QT
-34.248 -12.055 L
-34.248 -13.102 -34.975 -13.844 QT
-35.702 -14.586 -36.764 -14.586 QT
-39.28 -14.586 L
-39.28 -9.086 L
-39.28 -8.414 -37.123 -8.414 QT
-37.123 -7.68 L
-43.327 -7.68 L
cp
-39.28 -15.133 M
-37.03 -15.133 L
-35.295 -15.133 -34.381 -15.836 QT
-33.467 -16.539 -33.467 -18.227 QT
-33.467 -19.899 -34.373 -20.594 QT
-35.28 -21.289 -37.03 -21.289 QT
-38.217 -21.289 L
-38.592 -21.289 -38.803 -21.258 QT
-39.014 -21.227 -39.147 -21.079 QT
-39.28 -20.93 -39.28 -20.618 QT
-39.28 -15.133 L
cp
f
GR
GS
[0 -0.75 0.75 0 74.34999 80.74995] CT
0.149 GC
N
-23.092 -7.446 M
-24.373 -7.446 -25.443 -8.118 QT
-26.513 -8.789 -27.131 -9.914 QT
-27.748 -11.039 -27.748 -12.289 QT
-27.748 -13.508 -27.185 -14.618 QT
-26.623 -15.727 -25.623 -16.407 QT
-24.623 -17.086 -23.388 -17.086 QT
-22.435 -17.086 -21.717 -16.766 QT
-20.998 -16.446 -20.537 -15.875 QT
-20.076 -15.305 -19.842 -14.524 QT
-19.607 -13.743 -19.607 -12.805 QT
-19.607 -12.524 -19.826 -12.524 QT
-25.904 -12.524 L
-25.904 -12.305 L
-25.904 -10.555 -25.201 -9.305 QT
-24.498 -8.055 -22.904 -8.055 QT
-22.263 -8.055 -21.717 -8.344 QT
-21.17 -8.633 -20.763 -9.149 QT
-20.357 -9.664 -20.217 -10.243 QT
-20.201 -10.321 -20.138 -10.375 QT
-20.076 -10.43 -20.013 -10.43 QT
-19.826 -10.43 L
-19.607 -10.43 -19.607 -10.164 QT
-19.904 -8.977 -20.888 -8.211 QT
-21.873 -7.446 -23.092 -7.446 QT
cp
-25.888 -13.055 M
-21.092 -13.055 L
-21.092 -13.836 -21.318 -14.649 QT
-21.545 -15.461 -22.053 -16 QT
-22.56 -16.539 -23.388 -16.539 QT
-24.576 -16.539 -25.232 -15.43 QT
-25.888 -14.321 -25.888 -13.055 QT
cp
f
GR
GS
[0 -0.75 0.75 0 74.34999 80.74995] CT
0.149 GC
N
-18.001 -9.743 M
-18.001 -10.993 -17.016 -11.774 QT
-16.032 -12.555 -14.657 -12.883 QT
-13.282 -13.211 -12.032 -13.211 QT
-12.032 -14.071 L
-12.032 -14.68 -12.298 -15.243 QT
-12.563 -15.805 -13.071 -16.172 QT
-13.579 -16.539 -14.173 -16.539 QT
-15.579 -16.539 -16.298 -15.914 QT
-15.907 -15.914 -15.641 -15.61 QT
-15.376 -15.305 -15.376 -14.914 QT
-15.376 -14.493 -15.673 -14.196 QT
-15.969 -13.899 -16.376 -13.899 QT
-16.798 -13.899 -17.094 -14.196 QT
-17.391 -14.493 -17.391 -14.914 QT
-17.391 -16.024 -16.391 -16.555 QT
-15.391 -17.086 -14.173 -17.086 QT
-13.329 -17.086 -12.469 -16.727 QT
-11.61 -16.368 -11.055 -15.688 QT
-10.501 -15.008 -10.501 -14.102 QT
-10.501 -9.383 L
-10.501 -8.977 -10.329 -8.633 QT
-10.157 -8.289 -9.798 -8.289 QT
-9.438 -8.289 -9.274 -8.633 QT
-9.11 -8.977 -9.11 -9.383 QT
-9.11 -10.727 L
-8.485 -10.727 L
-8.485 -9.383 L
-8.485 -8.914 -8.735 -8.485 QT
-8.985 -8.055 -9.399 -7.805 QT
-9.813 -7.555 -10.298 -7.555 QT
-10.907 -7.555 -11.352 -8.032 QT
-11.798 -8.508 -11.844 -9.164 QT
-12.235 -8.383 -12.993 -7.914 QT
-13.751 -7.446 -14.626 -7.446 QT
-15.423 -7.446 -16.196 -7.68 QT
-16.969 -7.914 -17.485 -8.422 QT
-18.001 -8.93 -18.001 -9.743 QT
cp
-16.298 -9.743 M
-16.298 -9.008 -15.759 -8.5 QT
-15.219 -7.993 -14.469 -7.993 QT
-13.798 -7.993 -13.243 -8.336 QT
-12.688 -8.68 -12.36 -9.258 QT
-12.032 -9.836 -12.032 -10.493 QT
-12.032 -12.68 L
-12.985 -12.68 -13.985 -12.368 QT
-14.985 -12.055 -15.641 -11.383 QT
-16.298 -10.711 -16.298 -9.743 QT
cp
f
GR
GS
[0 -0.75 0.75 0 74.34999 80.74995] CT
0.149 GC
N
-7.537 -7.68 M
-7.537 -8.414 L
-6.818 -8.414 -6.357 -8.532 QT
-5.897 -8.649 -5.897 -9.086 QT
-5.897 -20.102 L
-5.897 -20.664 -6.061 -20.922 QT
-6.225 -21.18 -6.545 -21.235 QT
-6.865 -21.289 -7.537 -21.289 QT
-7.537 -22.024 L
-4.412 -22.258 L
-4.412 -9.086 L
-4.412 -8.649 -3.951 -8.532 QT
-3.49 -8.414 -2.787 -8.414 QT
-2.787 -7.68 L
-7.537 -7.68 L
cp
f
GR
GS
[0 -0.75 0.75 0 74.34999 80.74995] CT
0.149 GC
N
5.406 -3.602 M
5.406 -4.336 L
6.125 -4.336 6.586 -4.461 QT
7.047 -4.586 7.047 -5.008 QT
7.047 -15.133 L
7.047 -15.711 6.633 -15.852 QT
6.219 -15.993 5.406 -15.993 QT
5.406 -16.727 L
8.515 -16.961 L
8.515 -15.664 L
9.078 -16.289 9.844 -16.625 QT
10.609 -16.961 11.469 -16.961 QT
12.719 -16.961 13.711 -16.289 QT
14.703 -15.618 15.265 -14.524 QT
15.828 -13.43 15.828 -12.211 QT
15.828 -10.946 15.203 -9.844 QT
14.578 -8.743 13.508 -8.094 QT
12.437 -7.446 11.156 -7.446 QT
9.625 -7.446 8.578 -8.68 QT
8.578 -5.008 L
8.578 -4.586 9.039 -4.461 QT
9.5 -4.336 10.219 -4.336 QT
10.219 -3.602 L
5.406 -3.602 L
cp
8.578 -9.727 M
8.937 -8.977 9.594 -8.485 QT
10.25 -7.993 11.031 -7.993 QT
11.765 -7.993 12.32 -8.383 QT
12.875 -8.774 13.258 -9.43 QT
13.64 -10.086 13.82 -10.813 QT
14 -11.539 14 -12.211 QT
14 -13.055 13.695 -14.032 QT
13.39 -15.008 12.773 -15.68 QT
12.156 -16.352 11.265 -16.352 QT
10.422 -16.352 9.703 -15.914 QT
8.984 -15.477 8.578 -14.743 QT
8.578 -9.727 L
cp
f
GR
GS
[0 -0.75 0.75 0 74.34999 80.74995] CT
0.149 GC
N
17.555 -9.743 M
17.555 -10.993 18.539 -11.774 QT
19.524 -12.555 20.899 -12.883 QT
22.274 -13.211 23.524 -13.211 QT
23.524 -14.071 L
23.524 -14.68 23.258 -15.243 QT
22.992 -15.805 22.485 -16.172 QT
21.977 -16.539 21.383 -16.539 QT
19.977 -16.539 19.258 -15.914 QT
19.649 -15.914 19.914 -15.61 QT
20.18 -15.305 20.18 -14.914 QT
20.18 -14.493 19.883 -14.196 QT
19.586 -13.899 19.18 -13.899 QT
18.758 -13.899 18.461 -14.196 QT
18.164 -14.493 18.164 -14.914 QT
18.164 -16.024 19.164 -16.555 QT
20.164 -17.086 21.383 -17.086 QT
22.227 -17.086 23.086 -16.727 QT
23.946 -16.368 24.5 -15.688 QT
25.055 -15.008 25.055 -14.102 QT
25.055 -9.383 L
25.055 -8.977 25.227 -8.633 QT
25.399 -8.289 25.758 -8.289 QT
26.117 -8.289 26.281 -8.633 QT
26.446 -8.977 26.446 -9.383 QT
26.446 -10.727 L
27.071 -10.727 L
27.071 -9.383 L
27.071 -8.914 26.821 -8.485 QT
26.571 -8.055 26.156 -7.805 QT
25.742 -7.555 25.258 -7.555 QT
24.649 -7.555 24.203 -8.032 QT
23.758 -8.508 23.711 -9.164 QT
23.321 -8.383 22.563 -7.914 QT
21.805 -7.446 20.93 -7.446 QT
20.133 -7.446 19.36 -7.68 QT
18.586 -7.914 18.071 -8.422 QT
17.555 -8.93 17.555 -9.743 QT
cp
19.258 -9.743 M
19.258 -9.008 19.797 -8.5 QT
20.336 -7.993 21.086 -7.993 QT
21.758 -7.993 22.313 -8.336 QT
22.867 -8.68 23.196 -9.258 QT
23.524 -9.836 23.524 -10.493 QT
23.524 -12.68 L
22.571 -12.68 21.571 -12.368 QT
20.571 -12.055 19.914 -11.383 QT
19.258 -10.711 19.258 -9.743 QT
cp
f
GR
GS
[0 -0.75 0.75 0 74.34999 80.74995] CT
0.149 GC
N
27.925 -7.68 M
27.925 -8.414 L
28.643 -8.414 29.104 -8.532 QT
29.565 -8.649 29.565 -9.086 QT
29.565 -14.821 L
29.565 -15.383 29.393 -15.633 QT
29.222 -15.883 28.901 -15.938 QT
28.581 -15.993 27.925 -15.993 QT
27.925 -16.727 L
30.925 -16.961 L
30.925 -14.914 L
31.268 -15.821 31.893 -16.391 QT
32.518 -16.961 33.409 -16.961 QT
34.034 -16.961 34.526 -16.594 QT
35.018 -16.227 35.018 -15.618 QT
35.018 -15.243 34.745 -14.961 QT
34.472 -14.68 34.081 -14.68 QT
33.69 -14.68 33.409 -14.954 QT
33.128 -15.227 33.128 -15.618 QT
33.128 -16.18 33.534 -16.414 QT
33.409 -16.414 L
32.55 -16.414 32.018 -15.797 QT
31.487 -15.18 31.261 -14.274 QT
31.034 -13.368 31.034 -12.524 QT
31.034 -9.086 L
31.034 -8.414 33.065 -8.414 QT
33.065 -7.68 L
27.925 -7.68 L
cp
f
GR
GS
[0 -0.75 0.75 0 74.34999 80.74995] CT
0.149 GC
N
37.874 -10.196 M
37.874 -15.993 L
36.14 -15.993 L
36.14 -16.539 L
37.515 -16.539 38.155 -17.821 QT
38.796 -19.102 38.796 -20.602 QT
39.405 -20.602 L
39.405 -16.727 L
42.374 -16.727 L
42.374 -15.993 L
39.405 -15.993 L
39.405 -10.243 L
39.405 -9.368 39.694 -8.711 QT
39.983 -8.055 40.749 -8.055 QT
41.468 -8.055 41.788 -8.75 QT
42.108 -9.446 42.108 -10.243 QT
42.108 -11.477 L
42.702 -11.477 L
42.702 -10.196 L
42.702 -9.539 42.46 -8.899 QT
42.218 -8.258 41.749 -7.852 QT
41.28 -7.446 40.608 -7.446 QT
39.343 -7.446 38.608 -8.196 QT
37.874 -8.946 37.874 -10.196 QT
cp
f
GR
GS
[0.75 0 0 0.75 0 0.5] CT
0 0.447 0.741 RC
[10 6] 0 setdash
2 LJ
0.667 LW
N
128 174.945 M
135.717 174.407 L
143.434 173.862 L
151.152 173.312 L
158.869 172.756 L
166.586 172.194 L
174.303 171.626 L
182.02 171.051 L
189.737 170.47 L
197.455 169.881 L
205.172 169.286 L
212.889 168.683 L
220.606 168.073 L
228.323 167.454 L
236.04 166.828 L
243.758 166.193 L
251.475 165.55 L
259.192 164.897 L
266.909 164.235 L
274.626 163.562 L
282.343 162.88 L
290.061 162.187 L
297.778 161.482 L
305.495 160.766 L
313.212 160.037 L
320.929 159.294 L
328.646 158.539 L
336.364 157.768 L
344.081 156.982 L
351.798 156.179 L
359.515 155.359 L
367.232 154.521 L
374.949 153.662 L
382.667 152.782 L
390.384 151.878 L
398.101 150.95 L
405.818 149.994 L
413.535 149.008 L
421.253 147.989 L
428.97 146.933 L
436.687 145.837 L
444.404 144.695 L
452.121 143.5 L
459.838 142.245 L
467.556 140.92 L
475.273 139.51 L
482.99 137.997 L
490.707 136.354 L
498.424 134.54 L
506.141 132.487 L
513.859 130.06 L
521.576 126.922 L
529.293 120.646 L
537.01 119.094 L
544.727 119.075 L
552.444 119.058 L
560.162 119.041 L
567.879 119.024 L
575.596 119.008 L
583.313 118.992 L
591.03 118.976 L
598.747 118.96 L
606.465 118.944 L
614.182 118.928 L
621.899 118.911 L
629.616 118.895 L
637.333 118.878 L
645.05 118.86 L
652.768 118.842 L
660.485 118.824 L
668.202 118.805 L
675.919 118.786 L
683.636 118.766 L
691.354 118.746 L
699.071 118.725 L
706.788 118.703 L
714.505 118.68 L
722.222 118.657 L
729.939 118.633 L
737.657 118.609 L
745.374 118.583 L
753.091 118.557 L
760.808 118.53 L
768.525 118.502 L
776.242 118.473 L
783.96 118.443 L
791.677 118.412 L
799.394 118.38 L
807.111 118.347 L
814.828 118.313 L
822.545 118.278 L
830.263 118.242 L
837.98 118.205 L
845.697 118.166 L
853.414 118.127 L
861.131 118.086 L
868.849 118.044 L
876.566 118 L
884.283 117.955 L
892 117.909 L
S
GR
GS
[0.75 0 0 0.75 0 0.5] CT
0.851 0.325 0.098 RC
[10 6] 0 setdash
2 LJ
0.667 LW
N
128 158.472 M
135.717 157.779 L
143.434 157.079 L
151.152 156.372 L
158.869 155.658 L
166.586 154.935 L
174.303 154.204 L
182.02 153.464 L
189.737 152.715 L
197.455 151.956 L
205.172 151.187 L
212.889 150.407 L
220.606 149.616 L
228.323 148.812 L
236.04 147.995 L
243.758 147.165 L
251.475 146.321 L
259.192 145.46 L
266.909 144.583 L
274.626 143.689 L
282.343 142.775 L
290.061 141.84 L
297.778 140.883 L
305.495 139.901 L
313.212 138.892 L
320.929 137.854 L
328.646 136.783 L
336.364 135.677 L
344.081 134.529 L
351.798 133.336 L
359.515 132.09 L
367.232 130.783 L
374.949 129.405 L
382.667 127.941 L
390.384 126.372 L
398.101 124.672 L
405.818 122.796 L
413.535 120.676 L
421.253 118.175 L
428.97 114.957 L
436.687 109.004 L
444.404 94.449 L
452.121 95.458 L
459.838 96.572 L
467.556 97.786 L
475.273 99.104 L
482.99 100.539 L
490.707 102.115 L
498.424 103.87 L
506.141 105.871 L
513.859 108.25 L
521.576 111.344 L
529.293 117.579 L
537.01 119.094 L
544.727 119.075 L
552.444 119.058 L
560.162 119.041 L
567.879 119.024 L
575.596 119.008 L
583.313 118.992 L
591.03 118.976 L
598.747 118.96 L
606.465 118.944 L
614.182 118.928 L
621.899 118.911 L
629.616 118.895 L
637.333 118.878 L
645.05 118.86 L
652.768 118.842 L
660.485 118.824 L
668.202 118.805 L
675.919 118.786 L
683.636 118.766 L
691.354 118.746 L
699.071 118.725 L
706.788 118.703 L
714.505 118.68 L
722.222 118.657 L
729.939 118.633 L
737.657 118.609 L
745.374 118.583 L
753.091 118.557 L
760.808 118.53 L
768.525 118.502 L
776.242 118.473 L
783.96 118.443 L
791.677 118.412 L
799.394 118.38 L
807.111 118.347 L
814.828 118.313 L
822.545 118.278 L
830.263 118.242 L
837.98 118.205 L
845.697 118.166 L
853.414 118.127 L
861.131 118.086 L
868.849 118.044 L
876.566 118 L
884.283 117.955 L
892 117.909 L
S
GR
GS
[0.75 0 0 0.75 0 0.5] CT
0.929 0.694 0.125 RC
[10 6] 0 setdash
2 LJ
0.667 LW
N
128 59.458 M
135.717 60.074 L
143.434 60.696 L
151.152 61.324 L
158.869 61.96 L
166.586 62.602 L
174.303 63.252 L
182.02 63.909 L
189.737 64.574 L
197.455 65.248 L
205.172 65.93 L
212.889 66.622 L
220.606 67.323 L
228.323 68.034 L
236.04 68.755 L
243.758 69.487 L
251.475 70.232 L
259.192 70.988 L
266.909 71.758 L
274.626 72.541 L
282.343 73.339 L
290.061 74.153 L
297.778 74.984 L
305.495 75.834 L
313.212 76.702 L
320.929 77.592 L
328.646 78.506 L
336.364 79.444 L
344.081 80.411 L
351.798 81.409 L
359.515 82.442 L
367.232 83.515 L
374.949 84.633 L
382.667 85.805 L
390.384 87.041 L
398.101 88.356 L
405.818 89.772 L
413.535 91.325 L
421.253 93.085 L
428.97 97.494 L
436.687 103.916 L
444.404 106.595 L
452.121 106.688 L
459.838 106.758 L
467.556 106.814 L
475.273 106.86 L
482.99 106.899 L
490.707 106.932 L
498.424 106.961 L
506.141 106.988 L
513.859 107.012 L
521.576 107.034 L
529.293 107.054 L
537.01 107.073 L
544.727 107.091 L
552.444 107.109 L
560.162 107.126 L
567.879 107.142 L
575.596 107.158 L
583.313 107.175 L
591.03 107.19 L
598.747 107.206 L
606.465 107.223 L
614.182 107.239 L
621.899 107.255 L
629.616 107.272 L
637.333 107.289 L
645.05 107.306 L
652.768 107.324 L
660.485 107.343 L
668.202 107.361 L
675.919 107.381 L
683.636 107.4 L
691.354 107.421 L
699.071 107.442 L
706.788 107.464 L
714.505 107.486 L
722.222 107.509 L
729.939 107.533 L
737.657 107.558 L
745.374 107.583 L
753.091 107.61 L
760.808 107.637 L
768.525 107.665 L
776.242 107.694 L
783.96 107.724 L
791.677 107.755 L
799.394 107.787 L
807.111 107.819 L
814.828 107.853 L
822.545 107.888 L
830.263 107.924 L
837.98 107.962 L
845.697 108 L
853.414 108.04 L
861.131 108.081 L
868.849 108.123 L
876.566 108.166 L
884.283 108.211 L
892 108.258 L
S
GR
GS
[0.75 0 0 0.75 0 0.5] CT
0.494 0.184 0.557 RC
[10 6] 0 setdash
2 LJ
0.667 LW
N
128 59.458 M
135.717 60.074 L
143.434 60.696 L
151.152 61.324 L
158.869 61.96 L
166.586 62.602 L
174.303 63.252 L
182.02 63.909 L
189.737 64.574 L
197.455 65.248 L
205.172 65.93 L
212.889 66.622 L
220.606 67.323 L
228.323 68.034 L
236.04 68.755 L
243.758 69.487 L
251.475 70.232 L
259.192 70.988 L
266.909 71.758 L
274.626 72.541 L
282.343 73.339 L
290.061 74.153 L
297.778 74.984 L
305.495 75.834 L
313.212 76.702 L
320.929 77.592 L
328.646 78.506 L
336.364 79.444 L
344.081 80.411 L
351.798 81.409 L
359.515 82.442 L
367.232 83.515 L
374.949 84.633 L
382.667 85.805 L
390.384 87.041 L
398.101 88.356 L
405.818 89.772 L
413.535 91.325 L
421.253 93.085 L
428.97 92.949 L
436.687 93.576 L
444.404 106.595 L
452.121 106.688 L
459.838 106.758 L
467.556 106.814 L
475.273 106.86 L
482.99 106.899 L
490.707 106.932 L
498.424 106.961 L
506.141 106.988 L
513.859 107.012 L
521.576 107.034 L
529.293 107.054 L
537.01 107.073 L
544.727 107.091 L
552.444 107.109 L
560.162 107.126 L
567.879 107.142 L
575.596 107.158 L
583.313 107.175 L
591.03 107.19 L
598.747 107.206 L
606.465 107.223 L
614.182 107.239 L
621.899 107.255 L
629.616 107.272 L
637.333 107.289 L
645.05 107.306 L
652.768 107.324 L
660.485 107.343 L
668.202 107.361 L
675.919 107.381 L
683.636 107.4 L
691.354 107.421 L
699.071 107.442 L
706.788 107.464 L
714.505 107.486 L
722.222 107.509 L
729.939 107.533 L
737.657 107.558 L
745.374 107.583 L
753.091 107.61 L
760.808 107.637 L
768.525 107.665 L
776.242 107.694 L
783.96 107.724 L
791.677 107.755 L
799.394 107.787 L
807.111 107.819 L
814.828 107.853 L
822.545 107.888 L
830.263 107.924 L
837.98 107.962 L
845.697 108 L
853.414 108.04 L
861.131 108.081 L
868.849 108.123 L
876.566 108.166 L
884.283 108.211 L
892 108.258 L
S
GR
GS
[0.75 0 0 0.75 0 0.5] CT
1 GC
N
762 143 M
762 48 L
693 48 L
693 143 L
cp
f
GR
GS
[0.75 0 0 0.75 554.81927 46.38959] CT
N
0.969 4.152 M
0.969 3.871 1.219 3.621 QT
6.563 -1.614 L
4.672 -6.911 L
4.453 -7.504 4.211 -7.856 QT
3.969 -8.208 3.5 -8.208 QT
3.281 -8.208 3.281 -8.458 QT
3.297 -8.567 3.375 -8.637 QT
3.453 -8.708 3.578 -8.708 QT
5.563 -8.708 5.984 -7.52 QT
9.844 3.246 L
10.094 4.058 10.359 4.324 QT
10.453 4.464 10.453 4.511 QT
10.453 4.699 10.297 4.699 QT
9.266 4.699 L
8.797 4.558 8.516 3.871 QT
6.781 -0.989 L
2.188 4.402 L
1.844 4.73 1.578 4.73 QT
1.344 4.73 1.156 4.566 QT
0.969 4.402 0.969 4.152 QT
cp
f
GR
GS
[0.75 0 0 0.75 554.81927 46.38959] CT
N
12.092 7.28 M
12.092 6.827 L
13.717 6.827 13.717 6.405 QT
13.717 -0.408 L
13.045 -0.095 12.014 -0.095 QT
12.014 -0.548 L
13.608 -0.548 14.42 -1.376 QT
14.608 -1.376 L
14.655 -1.376 14.694 -1.345 QT
14.733 -1.314 14.733 -1.267 QT
14.733 6.405 L
14.733 6.827 16.358 6.827 QT
16.358 7.28 L
12.092 7.28 L
cp
f
GR
GS
[0.75 0 0 0.75 0 0.5] CT
0 0.447 0.741 RC
[10 6] 0 setdash
2 LJ
0.667 LW
N
696.979 61.186 M
736.774 61.186 L
S
GR
GS
[0.75 0 0 0.75 554.81927 63.54653] CT
N
/f-1392652949{0.969 4.152 M
0.969 3.871 1.219 3.621 QT
6.563 -1.614 L
4.672 -6.911 L
4.453 -7.504 4.211 -7.856 QT
3.969 -8.208 3.5 -8.208 QT
3.281 -8.208 3.281 -8.458 QT
3.297 -8.567 3.375 -8.637 QT
3.453 -8.708 3.578 -8.708 QT
5.563 -8.708 5.984 -7.52 QT
9.844 3.246 L
10.094 4.058 10.359 4.324 QT
10.453 4.464 10.453 4.511 QT
10.453 4.699 10.297 4.699 QT
9.266 4.699 L
8.797 4.558 8.516 3.871 QT
6.781 -0.989 L
2.188 4.402 L
1.844 4.73 1.578 4.73 QT
1.344 4.73 1.156 4.566 QT
0.969 4.402 0.969 4.152 QT
cp}def
f-1392652949
f
GR
GS
[0.75 0 0 0.75 554.81927 63.54653] CT
N
/f1880606231{11.53 7.28 M
11.53 6.936 L
11.53 6.905 11.561 6.858 QT
13.576 4.624 L
14.045 4.124 14.326 3.788 QT
14.608 3.452 14.889 3.014 QT
15.17 2.577 15.334 2.124 QT
15.498 1.671 15.498 1.171 QT
15.498 0.639 15.295 0.147 QT
15.092 -0.345 14.701 -0.634 QT
14.311 -0.923 13.764 -0.923 QT
13.201 -0.923 12.748 -0.579 QT
12.295 -0.236 12.108 0.296 QT
12.17 0.28 12.248 0.28 QT
12.545 0.28 12.748 0.475 QT
12.951 0.671 12.951 0.983 QT
12.951 1.28 12.748 1.491 QT
12.545 1.702 12.248 1.702 QT
11.951 1.702 11.74 1.491 QT
11.53 1.28 11.53 0.983 QT
11.53 0.499 11.717 0.069 QT
11.905 -0.361 12.248 -0.689 QT
12.592 -1.017 13.03 -1.197 QT
13.467 -1.376 13.951 -1.376 QT
14.701 -1.376 15.342 -1.064 QT
15.983 -0.751 16.358 -0.173 QT
16.733 0.405 16.733 1.171 QT
16.733 1.733 16.483 2.241 QT
16.233 2.749 15.85 3.163 QT
15.467 3.577 14.858 4.108 QT
14.248 4.639 14.061 4.811 QT
12.592 6.233 L
13.842 6.233 L
14.764 6.233 15.381 6.217 QT
15.998 6.202 16.03 6.155 QT
16.186 5.999 16.342 4.967 QT
16.733 4.967 L
16.358 7.28 L
11.53 7.28 L
cp}def
f1880606231
f
GR
GS
[0.75 0 0 0.75 0 0.5] CT
0.851 0.325 0.098 RC
[10 6] 0 setdash
2 LJ
0.667 LW
N
696.979 84.062 M
736.774 84.062 L
S
GR
GS
[0.75 0 0 0.75 554.81927 80.70347] CT
N
f-1392652949
f
GR
GS
[0.75 0 0 0.75 554.81927 80.70347] CT
N
/f-463940256{12.123 6.28 M
12.436 6.717 12.951 6.936 QT
13.467 7.155 14.045 7.155 QT
14.811 7.155 15.123 6.506 QT
15.436 5.858 15.436 5.046 QT
15.436 4.671 15.373 4.303 QT
15.311 3.936 15.147 3.624 QT
14.983 3.311 14.709 3.116 QT
14.436 2.921 14.045 2.921 QT
13.17 2.921 L
13.061 2.921 13.061 2.811 QT
13.061 2.686 L
13.061 2.592 13.17 2.592 QT
13.889 2.53 L
14.342 2.53 14.647 2.186 QT
14.951 1.842 15.092 1.35 QT
15.233 0.858 15.233 0.421 QT
15.233 -0.204 14.944 -0.603 QT
14.655 -1.001 14.045 -1.001 QT
13.561 -1.001 13.108 -0.814 QT
12.655 -0.626 12.389 -0.251 QT
12.42 -0.251 12.436 -0.259 QT
12.451 -0.267 12.483 -0.267 QT
12.764 -0.267 12.959 -0.064 QT
13.155 0.139 13.155 0.436 QT
13.155 0.717 12.959 0.921 QT
12.764 1.124 12.483 1.124 QT
12.186 1.124 11.983 0.921 QT
11.78 0.717 11.78 0.436 QT
11.78 -0.126 12.115 -0.54 QT
12.451 -0.954 12.983 -1.165 QT
13.514 -1.376 14.045 -1.376 QT
14.451 -1.376 14.889 -1.259 QT
15.326 -1.142 15.678 -0.923 QT
16.03 -0.704 16.256 -0.361 QT
16.483 -0.017 16.483 0.421 QT
16.483 0.967 16.24 1.428 QT
15.998 1.889 15.569 2.225 QT
15.139 2.561 14.639 2.733 QT
15.201 2.842 15.709 3.155 QT
16.217 3.467 16.522 3.967 QT
16.826 4.467 16.826 5.03 QT
16.826 5.749 16.436 6.327 QT
16.045 6.905 15.405 7.233 QT
14.764 7.561 14.045 7.561 QT
13.436 7.561 12.826 7.335 QT
12.217 7.108 11.826 6.639 QT
11.436 6.171 11.436 5.53 QT
11.436 5.202 11.655 4.991 QT
11.873 4.78 12.186 4.78 QT
12.405 4.78 12.576 4.874 QT
12.748 4.967 12.85 5.147 QT
12.951 5.327 12.951 5.53 QT
12.951 5.842 12.725 6.061 QT
12.498 6.28 12.186 6.28 QT
12.123 6.28 L
cp}def
f-463940256
f
GR
GS
[0.75 0 0 0.75 0 0.5] CT
0.929 0.694 0.125 RC
[10 6] 0 setdash
2 LJ
0.667 LW
N
696.979 106.938 M
736.774 106.938 L
S
GR
GS
[0.75 0 0 0.75 554.81927 97.8604] CT
N
f-1392652949
f
GR
GS
[0.75 0 0 0.75 554.81927 97.8604] CT
N
/f373607914{11.248 5.139 M
11.248 4.671 L
15.264 -1.314 L
15.311 -1.376 15.405 -1.376 QT
15.592 -1.376 L
15.733 -1.376 15.733 -1.236 QT
15.733 4.671 L
17.014 4.671 L
17.014 5.139 L
15.733 5.139 L
15.733 6.405 L
15.733 6.671 16.115 6.749 QT
16.498 6.827 16.998 6.827 QT
16.998 7.28 L
13.42 7.28 L
13.42 6.827 L
13.92 6.827 14.303 6.749 QT
14.686 6.671 14.686 6.405 QT
14.686 5.139 L
11.248 5.139 L
cp
11.686 4.671 M
14.764 4.671 L
14.764 0.077 L
11.686 4.671 L
cp}def
f373607914
f
GR
GS
[0.75 0 0 0.75 0 0.5] CT
0.494 0.184 0.557 RC
[10 6] 0 setdash
2 LJ
0.667 LW
N
696.979 129.814 M
736.774 129.814 L
S
GR
GS
[0.75 0 0 0.75 0 0.5] CT
0.149 GC
10.0 ML
0.667 LW
N
693 143 M
693 48 L
762 48 L
762 143 L
cp
S
GR
GS
[0.75 0 0 0.75 0 0.5] CT
1 GC
N
128 393 M
892 393 L
892 247 L
128 247 L
cp
f
GR
GS
[0.75 0 0 0.75 0 0.5] CT
0.873 GC
1 LJ
0.667 LW
N
128 393 M
128 247 L
S
GR
GS
[0.75 0 0 0.75 0 0.5] CT
0.873 GC
1 LJ
0.667 LW
N
204.4 393 M
204.4 247 L
S
GR
GS
[0.75 0 0 0.75 0 0.5] CT
0.873 GC
1 LJ
0.667 LW
N
280.8 393 M
280.8 247 L
S
GR
GS
[0.75 0 0 0.75 0 0.5] CT
0.873 GC
1 LJ
0.667 LW
N
357.2 393 M
357.2 247 L
S
GR
GS
[0.75 0 0 0.75 0 0.5] CT
0.873 GC
1 LJ
0.667 LW
N
433.6 393 M
433.6 247 L
S
GR
GS
[0.75 0 0 0.75 0 0.5] CT
0.873 GC
1 LJ
0.667 LW
N
510 393 M
510 247 L
S
GR
GS
[0.75 0 0 0.75 0 0.5] CT
0.873 GC
1 LJ
0.667 LW
N
586.4 393 M
586.4 247 L
S
GR
GS
[0.75 0 0 0.75 0 0.5] CT
0.873 GC
1 LJ
0.667 LW
N
662.8 393 M
662.8 247 L
S
GR
GS
[0.75 0 0 0.75 0 0.5] CT
0.873 GC
1 LJ
0.667 LW
N
739.2 393 M
739.2 247 L
S
GR
GS
[0.75 0 0 0.75 0 0.5] CT
0.873 GC
1 LJ
0.667 LW
N
815.6 393 M
815.6 247 L
S
GR
GS
[0.75 0 0 0.75 0 0.5] CT
0.873 GC
1 LJ
0.667 LW
N
892 393 M
892 247 L
S
GR
GS
[0.75 0 0 0.75 0 0.5] CT
0.873 GC
1 LJ
0.667 LW
N
892 380.733 M
128 380.733 L
S
GR
GS
[0.75 0 0 0.75 0 0.5] CT
0.873 GC
1 LJ
0.667 LW
N
892 320 M
128 320 L
S
GR
GS
[0.75 0 0 0.75 0 0.5] CT
0.873 GC
1 LJ
0.667 LW
N
892 259.267 M
128 259.267 L
S
GR
GS
[0.75 0 0 0.75 0 0.5] CT
0.149 GC
2 setlinecap
1 LJ
0.667 LW
N
128 393 M
892 393 L
S
GR
GS
[0.75 0 0 0.75 0 0.5] CT
0.149 GC
2 setlinecap
1 LJ
0.667 LW
N
128 247 M
892 247 L
S
GR
GS
[0.75 0 0 0.75 0 0.5] CT
0.149 GC
2 setlinecap
1 LJ
0.667 LW
N
128 393 M
128 385.36 L
S
GR
GS
[0.75 0 0 0.75 0 0.5] CT
0.149 GC
2 setlinecap
1 LJ
0.667 LW
N
204.4 393 M
204.4 385.36 L
S
GR
GS
[0.75 0 0 0.75 0 0.5] CT
0.149 GC
2 setlinecap
1 LJ
0.667 LW
N
280.8 393 M
280.8 385.36 L
S
GR
GS
[0.75 0 0 0.75 0 0.5] CT
0.149 GC
2 setlinecap
1 LJ
0.667 LW
N
357.2 393 M
357.2 385.36 L
S
GR
GS
[0.75 0 0 0.75 0 0.5] CT
0.149 GC
2 setlinecap
1 LJ
0.667 LW
N
433.6 393 M
433.6 385.36 L
S
GR
GS
[0.75 0 0 0.75 0 0.5] CT
0.149 GC
2 setlinecap
1 LJ
0.667 LW
N
510 393 M
510 385.36 L
S
GR
GS
[0.75 0 0 0.75 0 0.5] CT
0.149 GC
2 setlinecap
1 LJ
0.667 LW
N
586.4 393 M
586.4 385.36 L
S
GR
GS
[0.75 0 0 0.75 0 0.5] CT
0.149 GC
2 setlinecap
1 LJ
0.667 LW
N
662.8 393 M
662.8 385.36 L
S
GR
GS
[0.75 0 0 0.75 0 0.5] CT
0.149 GC
2 setlinecap
1 LJ
0.667 LW
N
739.2 393 M
739.2 385.36 L
S
GR
GS
[0.75 0 0 0.75 0 0.5] CT
0.149 GC
2 setlinecap
1 LJ
0.667 LW
N
815.6 393 M
815.6 385.36 L
S
GR
GS
[0.75 0 0 0.75 0 0.5] CT
0.149 GC
2 setlinecap
1 LJ
0.667 LW
N
892 393 M
892 385.36 L
S
GR
GS
[0.75 0 0 0.75 0 0.5] CT
0.149 GC
2 setlinecap
1 LJ
0.667 LW
N
128 247 M
128 254.64 L
S
GR
GS
[0.75 0 0 0.75 0 0.5] CT
0.149 GC
2 setlinecap
1 LJ
0.667 LW
N
204.4 247 M
204.4 254.64 L
S
GR
GS
[0.75 0 0 0.75 0 0.5] CT
0.149 GC
2 setlinecap
1 LJ
0.667 LW
N
280.8 247 M
280.8 254.64 L
S
GR
GS
[0.75 0 0 0.75 0 0.5] CT
0.149 GC
2 setlinecap
1 LJ
0.667 LW
N
357.2 247 M
357.2 254.64 L
S
GR
GS
[0.75 0 0 0.75 0 0.5] CT
0.149 GC
2 setlinecap
1 LJ
0.667 LW
N
433.6 247 M
433.6 254.64 L
S
GR
GS
[0.75 0 0 0.75 0 0.5] CT
0.149 GC
2 setlinecap
1 LJ
0.667 LW
N
510 247 M
510 254.64 L
S
GR
GS
[0.75 0 0 0.75 0 0.5] CT
0.149 GC
2 setlinecap
1 LJ
0.667 LW
N
586.4 247 M
586.4 254.64 L
S
GR
GS
[0.75 0 0 0.75 0 0.5] CT
0.149 GC
2 setlinecap
1 LJ
0.667 LW
N
662.8 247 M
662.8 254.64 L
S
GR
GS
[0.75 0 0 0.75 0 0.5] CT
0.149 GC
2 setlinecap
1 LJ
0.667 LW
N
739.2 247 M
739.2 254.64 L
S
GR
GS
[0.75 0 0 0.75 0 0.5] CT
0.149 GC
2 setlinecap
1 LJ
0.667 LW
N
815.6 247 M
815.6 254.64 L
S
GR
GS
[0.75 0 0 0.75 0 0.5] CT
0.149 GC
2 setlinecap
1 LJ
0.667 LW
N
892 247 M
892 254.64 L
S
GR
GS
[0.75 0 0 0.75 96 298.64999] CT
0.149 GC
/Helvetica 12.667 F
GS
[1 0 0 1 0 0] CT
-12.5 12 moveto 
1 -1 scale
(-0.5) t 
GR
GR
GS
[0.75 0 0 0.75 153.3 298.64999] CT
0.149 GC
/Helvetica 12.667 F
GS
[1 0 0 1 0 0] CT
-12.5 12 moveto 
1 -1 scale
(-0.4) t 
GR
GR
GS
[0.75 0 0 0.75 210.59999 298.64999] CT
0.149 GC
/Helvetica 12.667 F
GS
[1 0 0 1 0 0] CT
-12.5 12 moveto 
1 -1 scale
(-0.3) t 
GR
GR
GS
[0.75 0 0 0.75 267.90001 298.64999] CT
0.149 GC
/Helvetica 12.667 F
GS
[1 0 0 1 0 0] CT
-12.5 12 moveto 
1 -1 scale
(-0.2) t 
GR
GR
GS
[0.75 0 0 0.75 325.2 298.64999] CT
0.149 GC
/Helvetica 12.667 F
GS
[1 0 0 1 0 0] CT
-12.5 12 moveto 
1 -1 scale
(-0.1) t 
GR
GR
GS
[0.75 0 0 0.75 382.5 298.64999] CT
0.149 GC
/Helvetica 12.667 F
GS
[1 0 0 1 0 0] CT
-4.5 12 moveto 
1 -1 scale
(0) t 
GR
GR
GS
[0.75 0 0 0.75 439.80002 298.64999] CT
0.149 GC
/Helvetica 12.667 F
GS
[1 0 0 1 0 0] CT
-10.5 12 moveto 
1 -1 scale
(0.1) t 
GR
GR
GS
[0.75 0 0 0.75 497.09999 298.64999] CT
0.149 GC
/Helvetica 12.667 F
GS
[1 0 0 1 0 0] CT
-10.5 12 moveto 
1 -1 scale
(0.2) t 
GR
GR
GS
[0.75 0 0 0.75 554.40001 298.64999] CT
0.149 GC
/Helvetica 12.667 F
GS
[1 0 0 1 0 0] CT
-10.5 12 moveto 
1 -1 scale
(0.3) t 
GR
GR
GS
[0.75 0 0 0.75 611.69998 298.64999] CT
0.149 GC
/Helvetica 12.667 F
GS
[1 0 0 1 0 0] CT
-10.5 12 moveto 
1 -1 scale
(0.4) t 
GR
GR
GS
[0.75 0 0 0.75 669 298.64999] CT
0.149 GC
/Helvetica 12.667 F
GS
[1 0 0 1 0 0] CT
-10.5 12 moveto 
1 -1 scale
(0.5) t 
GR
GR
GS
[0.75 0 0 0.75 382.50027 310.64999] CT
0.149 GC
N
/f-533732221{-1.751 14.951 M
-1.751 15.67 -1.494 16.271 QT
-1.236 16.873 -0.72 17.24 QT
-0.205 17.607 0.499 17.607 QT
0.967 17.607 1.506 17.396 QT
2.045 17.186 2.499 16.943 QT
2.952 16.701 2.967 16.701 QT
3.077 16.701 3.139 16.826 QT
3.202 16.951 3.202 17.076 QT
3.202 17.186 3.139 17.217 QT
1.827 18.154 0.483 18.154 QT
-0.626 18.154 -1.517 17.639 QT
-2.408 17.123 -2.9 16.201 QT
-3.392 15.279 -3.392 14.17 QT
-3.392 13.092 -2.947 12.115 QT
-2.501 11.139 -1.72 10.404 QT
-0.939 9.67 0.045 9.271 QT
1.03 8.873 2.092 8.873 QT
3.295 8.873 L
3.608 8.873 3.608 9.186 QT
3.608 9.357 3.491 9.482 QT
3.374 9.607 3.202 9.607 QT
2.061 9.607 L
1.217 9.607 0.538 9.975 QT
-0.142 10.342 -0.603 10.998 QT
-1.064 11.654 -1.33 12.482 QT
2.389 12.482 L
2.53 12.482 2.616 12.568 QT
2.702 12.654 2.702 12.795 QT
2.702 12.967 2.592 13.092 QT
2.483 13.217 2.311 13.217 QT
-1.517 13.217 L
-1.751 14.295 -1.751 14.951 QT
cp}def
f-533732221
f
GR
GS
[0.75 0 0 0.75 0 0.5] CT
0.149 GC
2 setlinecap
1 LJ
0.667 LW
N
128 393 M
128 247 L
S
GR
GS
[0.75 0 0 0.75 0 0.5] CT
0.149 GC
2 setlinecap
1 LJ
0.667 LW
N
892 393 M
892 247 L
S
GR
GS
[0.75 0 0 0.75 0 0.5] CT
0.149 GC
2 setlinecap
1 LJ
0.667 LW
N
128 380.733 M
135.64 380.733 L
S
GR
GS
[0.75 0 0 0.75 0 0.5] CT
0.149 GC
2 setlinecap
1 LJ
0.667 LW
N
128 320 M
135.64 320 L
S
GR
GS
[0.75 0 0 0.75 0 0.5] CT
0.149 GC
2 setlinecap
1 LJ
0.667 LW
N
128 259.267 M
135.64 259.267 L
S
GR
GS
[0.75 0 0 0.75 0 0.5] CT
0.149 GC
2 setlinecap
1 LJ
0.667 LW
N
892 380.733 M
884.36 380.733 L
S
GR
GS
[0.75 0 0 0.75 0 0.5] CT
0.149 GC
2 setlinecap
1 LJ
0.667 LW
N
892 320 M
884.36 320 L
S
GR
GS
[0.75 0 0 0.75 0 0.5] CT
0.149 GC
2 setlinecap
1 LJ
0.667 LW
N
892 259.267 M
884.36 259.267 L
S
GR
GS
[0.75 0 0 0.75 92.59999 286.04989] CT
0.149 GC
/Helvetica 12.667 F
GS
[1 0 0 1 0 0] CT
-13 4.5 moveto 
1 -1 scale
(-5) t 
GR
GR
GS
[0.75 0 0 0.75 92.59999 240.5] CT
0.149 GC
/Helvetica 12.667 F
GS
[1 0 0 1 0 0] CT
-9 4.5 moveto 
1 -1 scale
(0) t 
GR
GR
GS
[0.75 0 0 0.75 92.59999 194.95011] CT
0.149 GC
/Helvetica 12.667 F
GS
[1 0 0 1 0 0] CT
-9 4.5 moveto 
1 -1 scale
(5) t 
GR
GR
GS
[0 -0.75 0.75 0 80.35 240.49995] CT
0.149 GC
N
/f1916756820{-70.031 -7.68 M
-70.031 -8.414 L
-67.765 -8.414 -67.765 -9.086 QT
-67.765 -20.618 L
-67.765 -21.289 -70.031 -21.289 QT
-70.031 -22.024 L
-63.547 -22.024 L
-63.547 -21.289 L
-65.812 -21.289 -65.812 -20.618 QT
-65.812 -9.086 L
-65.812 -8.414 -63.547 -8.414 QT
-63.547 -7.68 L
-70.031 -7.68 L
cp}def
f1916756820
f
GR
GS
[0 -0.75 0.75 0 80.35 240.49995] CT
0.149 GC
N
/f1096086184{-62.249 -7.68 M
-62.249 -8.414 L
-61.531 -8.414 -61.07 -8.532 QT
-60.609 -8.649 -60.609 -9.086 QT
-60.609 -14.821 L
-60.609 -15.383 -60.781 -15.633 QT
-60.952 -15.883 -61.265 -15.938 QT
-61.577 -15.993 -62.249 -15.993 QT
-62.249 -16.727 L
-59.202 -16.961 L
-59.202 -14.914 L
-58.781 -15.805 -57.952 -16.383 QT
-57.124 -16.961 -56.156 -16.961 QT
-53.734 -16.961 -53.312 -14.993 QT
-52.89 -15.868 -52.085 -16.414 QT
-51.281 -16.961 -50.312 -16.961 QT
-49.359 -16.961 -48.71 -16.657 QT
-48.062 -16.352 -47.734 -15.719 QT
-47.406 -15.086 -47.406 -14.133 QT
-47.406 -9.086 L
-47.406 -8.649 -46.937 -8.532 QT
-46.468 -8.414 -45.765 -8.414 QT
-45.765 -7.68 L
-50.562 -7.68 L
-50.562 -8.414 L
-49.859 -8.414 -49.39 -8.532 QT
-48.921 -8.649 -48.921 -9.086 QT
-48.921 -14.071 L
-48.921 -15.118 -49.226 -15.766 QT
-49.531 -16.414 -50.452 -16.414 QT
-51.656 -16.414 -52.445 -15.438 QT
-53.234 -14.461 -53.234 -13.227 QT
-53.234 -9.086 L
-53.234 -8.649 -52.773 -8.532 QT
-52.312 -8.414 -51.593 -8.414 QT
-51.593 -7.68 L
-56.406 -7.68 L
-56.406 -8.414 L
-55.687 -8.414 -55.226 -8.532 QT
-54.765 -8.649 -54.765 -9.086 QT
-54.765 -14.071 L
-54.765 -15.086 -55.062 -15.75 QT
-55.359 -16.414 -56.281 -16.414 QT
-57.499 -16.414 -58.288 -15.438 QT
-59.077 -14.461 -59.077 -13.227 QT
-59.077 -9.086 L
-59.077 -8.649 -58.609 -8.532 QT
-58.14 -8.414 -57.437 -8.414 QT
-57.437 -7.68 L
-62.249 -7.68 L
cp}def
f1096086184
f
GR
GS
[0 -0.75 0.75 0 80.35 240.49995] CT
0.149 GC
N
/f-2142797362{-44.253 -9.743 M
-44.253 -10.993 -43.268 -11.774 QT
-42.284 -12.555 -40.909 -12.883 QT
-39.534 -13.211 -38.284 -13.211 QT
-38.284 -14.071 L
-38.284 -14.68 -38.55 -15.243 QT
-38.815 -15.805 -39.323 -16.172 QT
-39.831 -16.539 -40.425 -16.539 QT
-41.831 -16.539 -42.55 -15.914 QT
-42.159 -15.914 -41.893 -15.61 QT
-41.628 -15.305 -41.628 -14.914 QT
-41.628 -14.493 -41.925 -14.196 QT
-42.221 -13.899 -42.628 -13.899 QT
-43.05 -13.899 -43.346 -14.196 QT
-43.643 -14.493 -43.643 -14.914 QT
-43.643 -16.024 -42.643 -16.555 QT
-41.643 -17.086 -40.425 -17.086 QT
-39.581 -17.086 -38.721 -16.727 QT
-37.862 -16.368 -37.307 -15.688 QT
-36.753 -15.008 -36.753 -14.102 QT
-36.753 -9.383 L
-36.753 -8.977 -36.581 -8.633 QT
-36.409 -8.289 -36.05 -8.289 QT
-35.69 -8.289 -35.526 -8.633 QT
-35.362 -8.977 -35.362 -9.383 QT
-35.362 -10.727 L
-34.737 -10.727 L
-34.737 -9.383 L
-34.737 -8.914 -34.987 -8.485 QT
-35.237 -8.055 -35.651 -7.805 QT
-36.065 -7.555 -36.55 -7.555 QT
-37.159 -7.555 -37.604 -8.032 QT
-38.05 -8.508 -38.096 -9.164 QT
-38.487 -8.383 -39.245 -7.914 QT
-40.003 -7.446 -40.878 -7.446 QT
-41.675 -7.446 -42.448 -7.68 QT
-43.221 -7.914 -43.737 -8.422 QT
-44.253 -8.93 -44.253 -9.743 QT
cp
-42.55 -9.743 M
-42.55 -9.008 -42.01 -8.5 QT
-41.471 -7.993 -40.721 -7.993 QT
-40.05 -7.993 -39.495 -8.336 QT
-38.94 -8.68 -38.612 -9.258 QT
-38.284 -9.836 -38.284 -10.493 QT
-38.284 -12.68 L
-39.237 -12.68 -40.237 -12.368 QT
-41.237 -12.055 -41.893 -11.383 QT
-42.55 -10.711 -42.55 -9.743 QT
cp}def
f-2142797362
f
GR
GS
[0 -0.75 0.75 0 80.35 240.49995] CT
0.149 GC
N
/f-456384806{-33.852 -6.039 M
-33.852 -6.789 -33.305 -7.344 QT
-32.758 -7.899 -32.008 -8.149 QT
-32.43 -8.461 -32.648 -8.946 QT
-32.867 -9.43 -32.867 -9.961 QT
-32.867 -10.946 -32.242 -11.711 QT
-33.211 -12.649 -33.211 -13.868 QT
-33.211 -14.524 -32.93 -15.102 QT
-32.648 -15.68 -32.141 -16.102 QT
-31.633 -16.524 -31.023 -16.743 QT
-30.414 -16.961 -29.758 -16.961 QT
-28.508 -16.961 -27.523 -16.227 QT
-27.086 -16.696 -26.5 -16.946 QT
-25.914 -17.196 -25.273 -17.196 QT
-24.82 -17.196 -24.531 -16.875 QT
-24.242 -16.555 -24.242 -16.102 QT
-24.242 -15.836 -24.438 -15.641 QT
-24.633 -15.446 -24.898 -15.446 QT
-25.164 -15.446 -25.359 -15.641 QT
-25.555 -15.836 -25.555 -16.102 QT
-25.555 -16.493 -25.289 -16.649 QT
-26.383 -16.649 -27.164 -15.899 QT
-26.773 -15.508 -26.547 -14.961 QT
-26.32 -14.414 -26.32 -13.868 QT
-26.32 -12.977 -26.813 -12.266 QT
-27.305 -11.555 -28.109 -11.164 QT
-28.914 -10.774 -29.758 -10.774 QT
-30.914 -10.774 -31.867 -11.399 QT
-32.164 -10.977 -32.164 -10.477 QT
-32.164 -9.914 -31.797 -9.5 QT
-31.43 -9.086 -30.883 -9.086 QT
-29.164 -9.086 L
-27.914 -9.086 -26.906 -8.86 QT
-25.898 -8.633 -25.219 -7.954 QT
-24.539 -7.274 -24.539 -6.039 QT
-24.539 -5.118 -25.313 -4.508 QT
-26.086 -3.899 -27.172 -3.625 QT
-28.258 -3.352 -29.18 -3.352 QT
-30.117 -3.352 -31.203 -3.625 QT
-32.289 -3.899 -33.07 -4.508 QT
-33.852 -5.118 -33.852 -6.039 QT
cp
-32.664 -6.039 M
-32.664 -5.336 -32.094 -4.86 QT
-31.523 -4.383 -30.711 -4.149 QT
-29.898 -3.914 -29.18 -3.914 QT
-28.477 -3.914 -27.664 -4.149 QT
-26.852 -4.383 -26.281 -4.86 QT
-25.711 -5.336 -25.711 -6.039 QT
-25.711 -7.133 -26.719 -7.461 QT
-27.727 -7.789 -29.164 -7.789 QT
-30.883 -7.789 L
-31.367 -7.789 -31.773 -7.555 QT
-32.18 -7.321 -32.422 -6.907 QT
-32.664 -6.493 -32.664 -6.039 QT
cp
-29.758 -11.336 M
-27.977 -11.336 -27.977 -13.868 QT
-27.977 -14.977 -28.359 -15.688 QT
-28.742 -16.399 -29.758 -16.399 QT
-30.789 -16.399 -31.172 -15.688 QT
-31.555 -14.977 -31.555 -13.868 QT
-31.555 -13.18 -31.406 -12.618 QT
-31.258 -12.055 -30.867 -11.696 QT
-30.477 -11.336 -29.758 -11.336 QT
cp}def
f-456384806
f
GR
GS
[0 -0.75 0.75 0 80.35 240.49995] CT
0.149 GC
N
/f-859024874{-23.122 -7.68 M
-23.122 -8.414 L
-22.404 -8.414 -21.943 -8.532 QT
-21.482 -8.649 -21.482 -9.086 QT
-21.482 -14.821 L
-21.482 -15.633 -21.794 -15.813 QT
-22.107 -15.993 -23.029 -15.993 QT
-23.029 -16.727 L
-19.997 -16.961 L
-19.997 -9.086 L
-19.997 -8.649 -19.599 -8.532 QT
-19.201 -8.414 -18.529 -8.414 QT
-18.529 -7.68 L
-23.122 -7.68 L
cp
-22.232 -20.571 M
-22.232 -21.024 -21.88 -21.375 QT
-21.529 -21.727 -21.076 -21.727 QT
-20.779 -21.727 -20.505 -21.571 QT
-20.232 -21.414 -20.076 -21.141 QT
-19.919 -20.868 -19.919 -20.571 QT
-19.919 -20.118 -20.271 -19.766 QT
-20.622 -19.414 -21.076 -19.414 QT
-21.529 -19.414 -21.88 -19.766 QT
-22.232 -20.118 -22.232 -20.571 QT
cp}def
f-859024874
f
GR
GS
[0 -0.75 0.75 0 80.35 240.49995] CT
0.149 GC
N
/f-1656146764{-17.212 -7.68 M
-17.212 -8.414 L
-16.493 -8.414 -16.032 -8.532 QT
-15.571 -8.649 -15.571 -9.086 QT
-15.571 -14.821 L
-15.571 -15.383 -15.743 -15.633 QT
-15.915 -15.883 -16.228 -15.938 QT
-16.54 -15.993 -17.212 -15.993 QT
-17.212 -16.727 L
-14.165 -16.961 L
-14.165 -14.914 L
-13.743 -15.805 -12.915 -16.383 QT
-12.087 -16.961 -11.118 -16.961 QT
-9.665 -16.961 -8.931 -16.266 QT
-8.196 -15.571 -8.196 -14.133 QT
-8.196 -9.086 L
-8.196 -8.649 -7.736 -8.532 QT
-7.275 -8.414 -6.556 -8.414 QT
-6.556 -7.68 L
-11.368 -7.68 L
-11.368 -8.414 L
-10.65 -8.414 -10.189 -8.532 QT
-9.728 -8.649 -9.728 -9.086 QT
-9.728 -14.071 L
-9.728 -15.086 -10.025 -15.75 QT
-10.321 -16.414 -11.243 -16.414 QT
-12.462 -16.414 -13.251 -15.438 QT
-14.04 -14.461 -14.04 -13.227 QT
-14.04 -9.086 L
-14.04 -8.649 -13.571 -8.532 QT
-13.103 -8.414 -12.4 -8.414 QT
-12.4 -7.68 L
-17.212 -7.68 L
cp}def
f-1656146764
f
GR
GS
[0 -0.75 0.75 0 80.35 240.49995] CT
0.149 GC
N
/f-1344467747{-5.141 -9.743 M
-5.141 -10.993 -4.157 -11.774 QT
-3.173 -12.555 -1.798 -12.883 QT
-0.423 -13.211 0.827 -13.211 QT
0.827 -14.071 L
0.827 -14.68 0.562 -15.243 QT
0.296 -15.805 -0.212 -16.172 QT
-0.72 -16.539 -1.313 -16.539 QT
-2.72 -16.539 -3.438 -15.914 QT
-3.048 -15.914 -2.782 -15.61 QT
-2.516 -15.305 -2.516 -14.914 QT
-2.516 -14.493 -2.813 -14.196 QT
-3.11 -13.899 -3.516 -13.899 QT
-3.938 -13.899 -4.235 -14.196 QT
-4.532 -14.493 -4.532 -14.914 QT
-4.532 -16.024 -3.532 -16.555 QT
-2.532 -17.086 -1.313 -17.086 QT
-0.47 -17.086 0.39 -16.727 QT
1.249 -16.368 1.804 -15.688 QT
2.359 -15.008 2.359 -14.102 QT
2.359 -9.383 L
2.359 -8.977 2.53 -8.633 QT
2.702 -8.289 3.062 -8.289 QT
3.421 -8.289 3.585 -8.633 QT
3.749 -8.977 3.749 -9.383 QT
3.749 -10.727 L
4.374 -10.727 L
4.374 -9.383 L
4.374 -8.914 4.124 -8.485 QT
3.874 -8.055 3.46 -7.805 QT
3.046 -7.555 2.562 -7.555 QT
1.952 -7.555 1.507 -8.032 QT
1.062 -8.508 1.015 -9.164 QT
0.624 -8.383 -0.134 -7.914 QT
-0.891 -7.446 -1.766 -7.446 QT
-2.563 -7.446 -3.337 -7.68 QT
-4.11 -7.914 -4.626 -8.422 QT
-5.141 -8.93 -5.141 -9.743 QT
cp
-3.438 -9.743 M
-3.438 -9.008 -2.899 -8.5 QT
-2.36 -7.993 -1.61 -7.993 QT
-0.938 -7.993 -0.384 -8.336 QT
0.171 -8.68 0.499 -9.258 QT
0.827 -9.836 0.827 -10.493 QT
0.827 -12.68 L
-0.126 -12.68 -1.126 -12.368 QT
-2.126 -12.055 -2.782 -11.383 QT
-3.438 -10.711 -3.438 -9.743 QT
cp}def
f-1344467747
f
GR
GS
[0 -0.75 0.75 0 80.35 240.49995] CT
0.149 GC
N
/f1576911461{5.228 -7.68 M
5.228 -8.414 L
5.947 -8.414 6.408 -8.532 QT
6.869 -8.649 6.869 -9.086 QT
6.869 -14.821 L
6.869 -15.383 6.697 -15.633 QT
6.525 -15.883 6.205 -15.938 QT
5.885 -15.993 5.228 -15.993 QT
5.228 -16.727 L
8.228 -16.961 L
8.228 -14.914 L
8.572 -15.821 9.197 -16.391 QT
9.822 -16.961 10.713 -16.961 QT
11.338 -16.961 11.83 -16.594 QT
12.322 -16.227 12.322 -15.618 QT
12.322 -15.243 12.049 -14.961 QT
11.775 -14.68 11.385 -14.68 QT
10.994 -14.68 10.713 -14.954 QT
10.432 -15.227 10.432 -15.618 QT
10.432 -16.18 10.838 -16.414 QT
10.713 -16.414 L
9.853 -16.414 9.322 -15.797 QT
8.791 -15.18 8.564 -14.274 QT
8.338 -13.368 8.338 -12.524 QT
8.338 -9.086 L
8.338 -8.414 10.369 -8.414 QT
10.369 -7.68 L
5.228 -7.68 L
cp}def
f1576911461
f
GR
GS
[0 -0.75 0.75 0 80.35 240.49995] CT
0.149 GC
N
/f-1726581507{14.49 -4.227 M
14.881 -3.914 15.365 -3.914 QT
16.693 -3.914 17.521 -5.914 QT
18.24 -7.68 L
15.1 -15.399 L
14.896 -15.774 14.498 -15.883 QT
14.1 -15.993 13.443 -15.993 QT
13.443 -16.727 L
17.85 -16.727 L
17.85 -15.993 L
16.693 -15.993 16.693 -15.493 QT
16.693 -15.414 16.709 -15.368 QT
19.053 -9.633 L
21.146 -14.789 L
21.209 -14.961 21.209 -15.149 QT
21.209 -15.414 21.068 -15.602 QT
20.928 -15.789 20.709 -15.891 QT
20.49 -15.993 20.209 -15.993 QT
20.209 -16.727 L
23.709 -16.727 L
23.709 -15.993 L
23.053 -15.993 22.568 -15.696 QT
22.084 -15.399 21.818 -14.821 QT
18.178 -5.914 L
17.896 -5.243 17.514 -4.672 QT
17.131 -4.102 16.576 -3.735 QT
16.021 -3.368 15.365 -3.368 QT
14.6 -3.368 14.021 -3.875 QT
13.443 -4.383 13.443 -5.133 QT
13.443 -5.524 13.709 -5.789 QT
13.975 -6.055 14.365 -6.055 QT
14.631 -6.055 14.842 -5.938 QT
15.053 -5.821 15.17 -5.618 QT
15.287 -5.414 15.287 -5.133 QT
15.287 -4.805 15.061 -4.532 QT
14.834 -4.258 14.49 -4.227 QT
cp}def
f-1726581507
f
GR
GS
[0 -0.75 0.75 0 80.35 240.49995] CT
0.149 GC
N
/f2125820421{31.954 -3.602 M
31.954 -4.336 L
32.673 -4.336 33.134 -4.461 QT
33.595 -4.586 33.595 -5.008 QT
33.595 -15.133 L
33.595 -15.711 33.181 -15.852 QT
32.767 -15.993 31.954 -15.993 QT
31.954 -16.727 L
35.064 -16.961 L
35.064 -15.664 L
35.626 -16.289 36.392 -16.625 QT
37.157 -16.961 38.017 -16.961 QT
39.267 -16.961 40.259 -16.289 QT
41.251 -15.618 41.814 -14.524 QT
42.376 -13.43 42.376 -12.211 QT
42.376 -10.946 41.751 -9.844 QT
41.126 -8.743 40.056 -8.094 QT
38.986 -7.446 37.704 -7.446 QT
36.173 -7.446 35.126 -8.68 QT
35.126 -5.008 L
35.126 -4.586 35.587 -4.461 QT
36.048 -4.336 36.767 -4.336 QT
36.767 -3.602 L
31.954 -3.602 L
cp
35.126 -9.727 M
35.486 -8.977 36.142 -8.485 QT
36.798 -7.993 37.579 -7.993 QT
38.314 -7.993 38.868 -8.383 QT
39.423 -8.774 39.806 -9.43 QT
40.189 -10.086 40.368 -10.813 QT
40.548 -11.539 40.548 -12.211 QT
40.548 -13.055 40.243 -14.032 QT
39.939 -15.008 39.322 -15.68 QT
38.704 -16.352 37.814 -16.352 QT
36.97 -16.352 36.251 -15.914 QT
35.532 -15.477 35.126 -14.743 QT
35.126 -9.727 L
cp}def
f2125820421
f
GR
GS
[0 -0.75 0.75 0 80.35 240.49995] CT
0.149 GC
N
/f842032551{44.103 -9.743 M
44.103 -10.993 45.088 -11.774 QT
46.072 -12.555 47.447 -12.883 QT
48.822 -13.211 50.072 -13.211 QT
50.072 -14.071 L
50.072 -14.68 49.806 -15.243 QT
49.541 -15.805 49.033 -16.172 QT
48.525 -16.539 47.931 -16.539 QT
46.525 -16.539 45.806 -15.914 QT
46.197 -15.914 46.463 -15.61 QT
46.728 -15.305 46.728 -14.914 QT
46.728 -14.493 46.431 -14.196 QT
46.134 -13.899 45.728 -13.899 QT
45.306 -13.899 45.009 -14.196 QT
44.713 -14.493 44.713 -14.914 QT
44.713 -16.024 45.713 -16.555 QT
46.713 -17.086 47.931 -17.086 QT
48.775 -17.086 49.634 -16.727 QT
50.494 -16.368 51.048 -15.688 QT
51.603 -15.008 51.603 -14.102 QT
51.603 -9.383 L
51.603 -8.977 51.775 -8.633 QT
51.947 -8.289 52.306 -8.289 QT
52.666 -8.289 52.83 -8.633 QT
52.994 -8.977 52.994 -9.383 QT
52.994 -10.727 L
53.619 -10.727 L
53.619 -9.383 L
53.619 -8.914 53.369 -8.485 QT
53.119 -8.055 52.705 -7.805 QT
52.291 -7.555 51.806 -7.555 QT
51.197 -7.555 50.752 -8.032 QT
50.306 -8.508 50.259 -9.164 QT
49.869 -8.383 49.111 -7.914 QT
48.353 -7.446 47.478 -7.446 QT
46.681 -7.446 45.908 -7.68 QT
45.134 -7.914 44.619 -8.422 QT
44.103 -8.93 44.103 -9.743 QT
cp
45.806 -9.743 M
45.806 -9.008 46.345 -8.5 QT
46.884 -7.993 47.634 -7.993 QT
48.306 -7.993 48.861 -8.336 QT
49.416 -8.68 49.744 -9.258 QT
50.072 -9.836 50.072 -10.493 QT
50.072 -12.68 L
49.119 -12.68 48.119 -12.368 QT
47.119 -12.055 46.463 -11.383 QT
45.806 -10.711 45.806 -9.743 QT
cp}def
f842032551
f
GR
GS
[0 -0.75 0.75 0 80.35 240.49995] CT
0.149 GC
N
/f-1612251480{54.473 -7.68 M
54.473 -8.414 L
55.192 -8.414 55.653 -8.532 QT
56.114 -8.649 56.114 -9.086 QT
56.114 -14.821 L
56.114 -15.383 55.942 -15.633 QT
55.77 -15.883 55.45 -15.938 QT
55.129 -15.993 54.473 -15.993 QT
54.473 -16.727 L
57.473 -16.961 L
57.473 -14.914 L
57.817 -15.821 58.442 -16.391 QT
59.067 -16.961 59.957 -16.961 QT
60.582 -16.961 61.075 -16.594 QT
61.567 -16.227 61.567 -15.618 QT
61.567 -15.243 61.293 -14.961 QT
61.02 -14.68 60.629 -14.68 QT
60.239 -14.68 59.957 -14.954 QT
59.676 -15.227 59.676 -15.618 QT
59.676 -16.18 60.082 -16.414 QT
59.957 -16.414 L
59.098 -16.414 58.567 -15.797 QT
58.035 -15.18 57.809 -14.274 QT
57.582 -13.368 57.582 -12.524 QT
57.582 -9.086 L
57.582 -8.414 59.614 -8.414 QT
59.614 -7.68 L
54.473 -7.68 L
cp}def
f-1612251480
f
GR
GS
[0 -0.75 0.75 0 80.35 240.49995] CT
0.149 GC
N
/f-1144048609{64.422 -10.196 M
64.422 -15.993 L
62.688 -15.993 L
62.688 -16.539 L
64.063 -16.539 64.704 -17.821 QT
65.344 -19.102 65.344 -20.602 QT
65.954 -20.602 L
65.954 -16.727 L
68.922 -16.727 L
68.922 -15.993 L
65.954 -15.993 L
65.954 -10.243 L
65.954 -9.368 66.243 -8.711 QT
66.532 -8.055 67.297 -8.055 QT
68.016 -8.055 68.336 -8.75 QT
68.657 -9.446 68.657 -10.243 QT
68.657 -11.477 L
69.25 -11.477 L
69.25 -10.196 L
69.25 -9.539 69.008 -8.899 QT
68.766 -8.258 68.297 -7.852 QT
67.829 -7.446 67.157 -7.446 QT
65.891 -7.446 65.157 -8.196 QT
64.422 -8.946 64.422 -10.196 QT
cp}def
f-1144048609
f
GR
GS
[0.75 0 0 0.75 0 0.5] CT
0 0.447 0.741 RC
[10 6] 0 setdash
2 LJ
0.667 LW
N
128 320 M
135.717 320 L
143.434 320 L
151.152 320 L
158.869 320 L
166.586 320 L
174.303 320 L
182.02 320 L
189.737 320 L
197.455 320 L
205.172 320 L
212.889 320 L
220.606 320 L
228.323 320 L
236.04 320 L
243.758 320 L
251.475 320 L
259.192 320 L
266.909 320 L
274.626 320 L
282.343 320 L
290.061 320 L
297.778 320 L
305.495 320 L
313.212 320 L
320.929 320 L
328.646 320 L
336.364 320 L
344.081 320 L
351.798 320 L
359.515 320 L
367.232 320 L
374.949 320 L
382.667 320 L
390.384 320 L
398.101 320 L
405.818 320 L
413.535 320 L
421.253 320 L
428.97 320 L
436.687 320 L
444.404 320 L
452.121 320 L
459.838 320 L
467.556 320 L
475.273 320 L
482.99 320 L
490.707 320 L
498.424 320 L
506.141 320 L
513.859 320 L
521.576 320 L
529.293 320 L
537.01 329.338 L
544.727 333.345 L
552.444 336.401 L
560.162 338.969 L
567.879 341.229 L
575.596 343.269 L
583.313 345.143 L
591.03 346.885 L
598.747 348.519 L
606.465 350.064 L
614.182 351.531 L
621.899 352.931 L
629.616 354.272 L
637.333 355.561 L
645.05 356.804 L
652.768 358.004 L
660.485 359.166 L
668.202 360.292 L
675.919 361.386 L
683.636 362.451 L
691.354 363.487 L
699.071 364.498 L
706.788 365.484 L
714.505 366.448 L
722.222 367.391 L
729.939 368.313 L
737.657 369.217 L
745.374 370.102 L
753.091 370.971 L
760.808 371.823 L
768.525 372.66 L
776.242 373.482 L
783.96 374.29 L
791.677 375.084 L
799.394 375.865 L
807.111 376.634 L
814.828 377.39 L
822.545 378.135 L
830.263 378.869 L
837.98 379.592 L
845.697 380.305 L
853.414 381.007 L
861.131 381.7 L
868.849 382.383 L
876.566 383.056 L
884.283 383.721 L
892 384.377 L
S
GR
GS
[0.75 0 0 0.75 0 0.5] CT
0.851 0.325 0.098 RC
[10 6] 0 setdash
2 LJ
0.667 LW
N
128 320 M
135.717 320 L
143.434 320 L
151.152 320 L
158.869 320 L
166.586 320 L
174.303 320 L
182.02 320 L
189.737 320 L
197.455 320 L
205.172 320 L
212.889 320 L
220.606 320 L
228.323 320 L
236.04 320 L
243.758 320 L
251.475 320 L
259.192 320 L
266.909 320 L
274.626 320 L
282.343 320 L
290.061 320 L
297.778 320 L
305.495 320 L
313.212 320 L
320.929 320 L
328.646 320 L
336.364 320 L
344.081 320 L
351.798 320 L
359.515 320 L
367.232 320 L
374.949 320 L
382.667 320 L
390.384 320 L
398.101 320 L
405.818 320 L
413.535 320 L
421.253 320 L
428.97 320 L
436.687 320 L
444.404 320 L
452.121 320 L
459.838 320 L
467.556 320 L
475.273 320 L
482.99 320 L
490.707 320 L
498.424 320 L
506.141 320 L
513.859 320 L
521.576 320 L
529.293 320 L
537.01 310.662 L
544.727 306.655 L
552.444 303.599 L
560.162 301.031 L
567.879 298.771 L
575.596 296.731 L
583.313 294.857 L
591.03 293.115 L
598.747 291.481 L
606.465 289.936 L
614.182 288.469 L
621.899 287.069 L
629.616 285.728 L
637.333 284.439 L
645.05 283.196 L
652.768 281.996 L
660.485 280.834 L
668.202 279.708 L
675.919 278.614 L
683.636 277.549 L
691.354 276.513 L
699.071 275.502 L
706.788 274.516 L
714.505 273.552 L
722.222 272.609 L
729.939 271.687 L
737.657 270.783 L
745.374 269.898 L
753.091 269.029 L
760.808 268.177 L
768.525 267.34 L
776.242 266.518 L
783.96 265.71 L
791.677 264.916 L
799.394 264.135 L
807.111 263.366 L
814.828 262.61 L
822.545 261.865 L
830.263 261.131 L
837.98 260.408 L
845.697 259.695 L
853.414 258.993 L
861.131 258.3 L
868.849 257.617 L
876.566 256.944 L
884.283 256.279 L
892 255.623 L
S
GR
GS
[0.75 0 0 0.75 0 0.5] CT
0.929 0.694 0.125 RC
[10 6] 0 setdash
2 LJ
0.667 LW
N
128 318.304 M
135.717 318.248 L
143.434 318.191 L
151.152 318.133 L
158.869 318.074 L
166.586 318.015 L
174.303 317.955 L
182.02 317.894 L
189.737 317.832 L
197.455 317.77 L
205.172 317.707 L
212.889 317.643 L
220.606 317.579 L
228.323 317.514 L
236.04 317.448 L
243.758 317.382 L
251.475 317.316 L
259.192 317.249 L
266.909 317.182 L
274.626 317.115 L
282.343 317.048 L
290.061 316.981 L
297.778 316.915 L
305.495 316.849 L
313.212 316.785 L
320.929 316.723 L
328.646 316.664 L
336.364 316.608 L
344.081 316.558 L
351.798 316.514 L
359.515 316.48 L
367.232 316.459 L
374.949 316.457 L
382.667 316.482 L
390.384 316.548 L
398.101 316.68 L
405.818 316.928 L
413.535 317.411 L
421.253 318.656 L
428.97 320 L
436.687 320 L
444.404 310.333 L
452.121 306.053 L
459.838 302.851 L
467.556 300.187 L
475.273 297.861 L
482.99 295.77 L
490.707 293.858 L
498.424 292.085 L
506.141 290.426 L
513.859 288.862 L
521.576 287.379 L
529.293 285.965 L
537.01 355.387 L
544.727 356.686 L
552.444 357.936 L
560.162 359.142 L
567.879 360.309 L
575.596 361.44 L
583.313 362.537 L
591.03 363.605 L
598.747 364.644 L
606.465 365.656 L
614.182 366.644 L
621.899 367.61 L
629.616 368.553 L
637.333 369.477 L
645.05 370.381 L
652.768 371.267 L
660.485 372.137 L
668.202 372.989 L
675.919 373.827 L
683.636 374.65 L
691.354 375.459 L
699.071 376.254 L
706.788 377.036 L
714.505 377.807 L
722.222 378.565 L
729.939 379.312 L
737.657 380.049 L
745.374 380.775 L
753.091 381.491 L
760.808 382.197 L
768.525 382.894 L
776.242 383.581 L
783.96 384.261 L
791.677 384.931 L
799.394 385.594 L
807.111 386.249 L
814.828 386.896 L
822.545 387.536 L
830.263 388.169 L
837.98 388.794 L
845.697 389.414 L
853.414 390.026 L
861.131 390.633 L
868.849 391.233 L
876.566 391.828 L
884.283 392.417 L
892 393 L
S
GR
GS
[0.75 0 0 0.75 0 0.5] CT
0.494 0.184 0.557 RC
[10 6] 0 setdash
2 LJ
0.667 LW
N
128 321.696 M
135.717 321.752 L
143.434 321.809 L
151.152 321.867 L
158.869 321.926 L
166.586 321.985 L
174.303 322.045 L
182.02 322.106 L
189.737 322.168 L
197.455 322.23 L
205.172 322.293 L
212.889 322.357 L
220.606 322.421 L
228.323 322.486 L
236.04 322.552 L
243.758 322.618 L
251.475 322.684 L
259.192 322.751 L
266.909 322.818 L
274.626 322.885 L
282.343 322.952 L
290.061 323.019 L
297.778 323.085 L
305.495 323.151 L
313.212 323.215 L
320.929 323.277 L
328.646 323.336 L
336.364 323.392 L
344.081 323.442 L
351.798 323.486 L
359.515 323.52 L
367.232 323.541 L
374.949 323.543 L
382.667 323.518 L
390.384 323.452 L
398.101 323.32 L
405.818 323.072 L
413.535 322.589 L
421.253 321.344 L
428.97 320 L
436.687 320 L
444.404 329.667 L
452.121 333.947 L
459.838 337.149 L
467.556 339.813 L
475.273 342.139 L
482.99 344.23 L
490.707 346.142 L
498.424 347.915 L
506.141 349.574 L
513.859 351.138 L
521.576 352.621 L
529.293 354.035 L
537.01 284.613 L
544.727 283.314 L
552.444 282.064 L
560.162 280.858 L
567.879 279.691 L
575.596 278.56 L
583.313 277.463 L
591.03 276.395 L
598.747 275.356 L
606.465 274.344 L
614.182 273.356 L
621.899 272.39 L
629.616 271.447 L
637.333 270.523 L
645.05 269.619 L
652.768 268.733 L
660.485 267.863 L
668.202 267.011 L
675.919 266.173 L
683.636 265.35 L
691.354 264.541 L
699.071 263.746 L
706.788 262.964 L
714.505 262.193 L
722.222 261.435 L
729.939 260.688 L
737.657 259.951 L
745.374 259.225 L
753.091 258.509 L
760.808 257.803 L
768.525 257.106 L
776.242 256.419 L
783.96 255.739 L
791.677 255.069 L
799.394 254.406 L
807.111 253.751 L
814.828 253.104 L
822.545 252.464 L
830.263 251.831 L
837.98 251.206 L
845.697 250.586 L
853.414 249.974 L
861.131 249.367 L
868.849 248.767 L
876.566 248.172 L
884.283 247.583 L
892 247 L
S
GR
%%Trailer
%%Pages: 1
%%EOF
